$ 1 0.000005 2.688763906446752 54 5 50 5e-11
155 272 96 320 96 8192 2.8 0
w 384 160 384 64 0
w 368 64 272 64 0
w 272 64 272 96 0
f 480 64 528 64 32 1.5 0.02
f 368 176 576 176 32 1.5 0.02
w 368 160 368 176 0
w 368 96 400 64 0
w 400 64 480 64 0
w 368 64 384 64 0
w 384 160 368 160 0
w 528 48 528 16 0
w 256 128 272 128 0
w 576 16 576 160 0
g 576 192 576 224 0 0
g 528 80 528 96 0 0
415 528 -96 528 -48 0 0.5 1 0.15 0.15 0.02 0.05 1 0
415 576 -96 576 -48 0 0.5 1 0.15 0.15 0.02 0.05 1 0
w 528 -112 528 -96 0
w 576 -112 576 -96 0
w 528 -48 528 16 0
w 576 -48 576 16 0
w 576 -112 576 -144 0
d 512 -144 576 -144 2 default
d 464 -112 528 -112 2 default
w 464 -144 512 -144 0
w 464 -144 464 -112 0
w 464 -128 464 -144 0
g 448 112 448 128 0 0
r 448 64 448 112 0 10000
w 448 64 480 64 0
r 496 192 496 224 0 10000
g 496 224 496 240 0 0
w 496 192 496 176 0
w 496 176 368 176 0
x -122 287 -102 290 4 16 C2
x -122 198 -102 201 4 16 C1
g 32 240 32 272 0 0
R 32 64 -16 64 0 0 40 3.2 0 0 0.5
r 32 128 32 64 0 100
w -80 320 80 320 0
r 80 128 80 320 0 1000
w 32 128 80 128 0
w 32 160 32 240 0
w -80 240 32 240 0
w -80 144 -16 144 0
w -192 144 -80 144 0
w -192 320 -80 320 0
c -80 240 -80 320 0 0.1 -0.6790219549834657 0.001
t -16 144 32 144 0 1 -0.0284847520988869 0.6787159965388381 100 default
c -80 144 -80 240 0 0.1 0.6787159965388381 0.001
l -192 144 -192 320 0 0.01 -0.00029908653483170193 0
w 256 128 80 128 0
w 320 -144 464 -128 0
x -158 123 -21 126 4 24 LC\sOscillator
x 320 45 477 48 4 24 DQ\sdivide\sby\s2
x 232 -161 422 -158 4 24 Output\sfrom\smiller
x -202 43 215 46 4 24 PV\sraw\svoltage\s(also\sthe\sinput\sto\smiller)
c 112 -208 112 -128 0 0.0047 3.03675221777366 0.001
r 112 -208 64 -208 0 10
R 64 -208 16 -208 0 0 40 3.2 0 0 0.5
g 112 -128 112 -112 0 0
s 208 -224 288 -224 0 1 true
w 112 -208 208 -208 0
w 208 -208 208 -224 0
w 288 -224 320 -144 0
o 52 64 0 4099 1.25 0.00009765625 0 2 52 3
o 8 64 0 4099 0.0000762939453125 0.00009765625 1 2 8 3
