$ 1 0.000005 10.20027730826997 50 5 50 5e-11
155 272 96 320 96 8192 2.8 0
R 272 128 208 128 1 2 50 5 2.5 0 0.5
w 384 160 384 64 0
w 368 64 272 64 0
w 272 64 272 96 0
f 480 64 528 64 32 1.5 0.02
f 368 176 576 176 32 1.5 0.02
w 368 160 368 176 0
w 368 96 400 64 0
w 400 64 480 64 0
w 368 64 384 64 0
w 384 160 368 160 0
w 528 48 528 16 0
w 256 16 256 128 0
w 256 128 272 128 0
w 576 16 576 160 0
g 576 192 576 224 0 0
g 528 80 528 96 0 0
415 528 -96 528 -48 0 0.5 1 0.15 0.15 0.02 0.05 1 0
415 576 -96 576 -48 0 0.5 1 0.15 0.15 0.02 0.05 1 0
w 256 16 256 -112 0
w 528 -112 528 -96 0
w 576 -112 576 -96 0
w 528 -48 528 16 0
w 576 -48 576 16 0
w 576 -112 576 -144 0
d 512 -144 576 -144 2 default
d 464 -112 528 -112 2 default
w 464 -144 512 -144 0
w 464 -144 464 -112 0
w 464 -128 256 -128 0
w 256 -128 256 -112 0
w 464 -128 464 -144 0
g 448 112 448 128 0 0
r 448 64 448 112 0 10000
w 448 64 480 64 0
r 496 192 496 224 0 10000
g 496 224 496 240 0 0
w 496 192 496 176 0
w 496 176 368 176 0
o 1 64 0 4110 10 0.00009765625 0 2 1 3
o 19 64 0 4099 20 0.05 1 2 19 3
