$ 1 0.000005 10.20027730826997 50 5 50 5e-11
155 272 96 320 96 8192 2.8 2.8
w 384 160 384 64 0
w 368 64 272 64 0
w 272 64 272 96 0
f 480 64 528 64 32 1.5 0.02
f 480 176 576 176 32 1.5 0.02
w 368 96 400 64 0
w 368 64 384 64 0
w 384 160 368 160 0
w 528 48 528 16 0
w 256 128 272 128 0
w 576 16 576 160 0
g 576 224 576 256 0 0
g 528 112 528 128 0 0
415 528 -96 528 -48 0 0.5 1 0.15 0.15 0.02 0.05 1 0
415 576 -96 576 -48 0 0.5 1 0.15 0.15 0.02 0.05 1 0
w 528 -112 528 -96 0
w 576 -112 576 -96 0
w 528 -48 528 16 0
w 576 -48 576 16 0
w 576 -112 576 -144 0
d 512 -144 576 -144 2 default
d 464 -112 528 -112 2 default
w 464 -144 512 -144 0
w 464 -144 464 -112 0
w 464 -128 224 -128 0
w 464 -128 464 -144 0
w 384 160 384 176 0
R 144 -32 144 -64 0 0 40 3 0 0 0.5
s 144 -32 224 -32 0 1 false
w 336 -32 368 -32 0
w 448 -32 480 -32 0
d 400 64 480 64 2 default
d 384 176 480 176 2 default
d 480 -32 480 64 2 default
d 464 -32 464 176 2 default
w 464 176 480 176 0
w 464 -32 480 -32 0
x 3 152 273 155 4 18 Output\sfrom\smiller\sin\spulsed\smode
x -82 -82 204 -79 4 24 Output\sin\scontinuous\smode
w 224 -32 336 -32 0
w 368 -32 448 -32 0
w 224 128 256 128 0
w 96 -32 144 -32 0
s 144 128 224 128 0 1 true
r 96 -32 96 16 0 100
c 96 16 96 48 0 0.001 2.8183197569047818 0.001
g 96 48 96 64 0 0
w 144 128 144 16 0
w 96 16 144 16 0
w 224 -128 224 128 0
r 224 128 224 224 0 10000
g 224 224 224 240 0 0
r 528 112 480 112 0 10000
w 480 112 480 64 0
w 528 80 528 112 0
r 576 224 512 224 0 10000
w 576 192 576 224 0
w 480 176 480 224 0
w 480 224 512 224 0
s 176 -208 256 -208 0 1 false
w 256 -208 224 -128 0
w 176 -208 144 -32 0
