﻿Designator,Quantity,Value,Footprint,Package,MPN,DNP,Mount_Type,Manufacturer,Mouser,THT_Mouser,supplier,THT_mouser
C1,1,0.47µF,C_1206_3216Metric,,885012208034,,smt,Wurth Elektronik,https://www.mouser.dk/ProductDetail/Wurth-Elektronik/885012208034?qs=0KOYDY2FL29WWQY8kg3XGA%3D%3D,https://www.mouser.dk/ProductDetail/KEMET/C410C474K5R5TA7200?qs=WLTup5mM6hiTb5nxgMGi%252BA%3D%3D,,
C2,1,4700µF,CP_Radial_D12.5mm_P5.00mm,,ECA-0JM472,,tht,Panasonic,https://www.mouser.dk/ProductDetail/Panasonic/ECA-0JM472?qs=Ad%252B7dhWSHpY%252B3T3S0XpsKA%3D%3D,,,
D1,1,1N4148,D_1206_3216Metric,,TS4148C RZG,,smt,Taiwan Semiconductor,https://www.mouser.dk/ProductDetail/Taiwan-Semiconductor/TS4148C-RZG?qs=C%2F0tY%2F%2FqZe94zaW%252BCjWDSw%3D%3D,https://www.mouser.dk/ProductDetail/onsemi-Fairchild/1N4148?qs=i4Fj9T%2FoRm8RMUhj5DeFQg%3D%3D,,
IN1,1,Conn_01x02_Male,AMASS_XT30PW-M_1x02_P2.50mm_Horizontal,,XT30PW-M,,tht,AMASS,,,https://www.tme.com/us/en-us/details/xt30pw-m/dc-power-connectors/amass/,
OUT1,1,Conn_01x02_Female,AMASS_XT30PW-F_1x02_P2.50mm_Horizontal,,XT30PW-F,,tht,AMASS,,,https://www.tme.com/us/en-us/details/xt30pw-f/dc-power-connectors/amass/,
Q1,1,Q_NJFET_GDS,SOT-23,,PJA3430_R1_00001,,smt,Panjit,https://www.mouser.dk/ProductDetail/Panjit/PJA3430_R1_00001?qs=sPbYRqrBIVl5Fxx2dTy7RA%3D%3D,,,https://www.mouser.dk/ProductDetail/Microchip-Technology/VN3205N3-G?qs=M32N5aAaIfN9C45hhAlIdQ%3D%3D
U1,1,TC54,SOT-23,,TC54VC3002ECB713,,smt,Microchip Technology,https://www.mouser.dk/ProductDetail/Microchip-Technology-Atmel/TC54VC3002ECB713?qs=DYhulPWWrtvwwqM72KWPwg%3D%3D,,,
Z1,1,5.45V,D_SOD-323_HandSoldering,,UFZVTE-175.6B,,smt,ROHM Semiconductor,https://www.mouser.dk/ProductDetail/ROHM-Semiconductor/UFZVTE-175.6B?qs=HXFqYaX1Q2wygCxp2MwFUQ%3D%3D,https://www.mouser.dk/ProductDetail/onsemi-Fairchild/1N5231BTR?qs=SSucg2PyLi4jKyKWJywUyQ%3D%3D,,
