%TF.GenerationSoftware,KiCad,Pcbnew,8.0.7*%
%TF.CreationDate,2024-12-20T22:35:57+01:00*%
%TF.ProjectId,miller,6d696c6c-6572-42e6-9b69-6361645f7063,4*%
%TF.SameCoordinates,Original*%
%TF.FileFunction,Copper,L1,Top*%
%TF.FilePolarity,Positive*%
%FSLAX46Y46*%
G04 Gerber Fmt 4.6, Leading zero omitted, Abs format (unit mm)*
G04 Created by KiCad (PCBNEW 8.0.7) date 2024-12-20 22:35:57*
%MOMM*%
%LPD*%
G01*
G04 APERTURE LIST*
G04 Aperture macros list*
%AMRoundRect*
0 Rectangle with rounded corners*
0 $1 Rounding radius*
0 $2 $3 $4 $5 $6 $7 $8 $9 X,Y pos of 4 corners*
0 Add a 4 corners polygon primitive as box body*
4,1,4,$2,$3,$4,$5,$6,$7,$8,$9,$2,$3,0*
0 Add four circle primitives for the rounded corners*
1,1,$1+$1,$2,$3*
1,1,$1+$1,$4,$5*
1,1,$1+$1,$6,$7*
1,1,$1+$1,$8,$9*
0 Add four rect primitives between the rounded corners*
20,1,$1+$1,$2,$3,$4,$5,0*
20,1,$1+$1,$4,$5,$6,$7,0*
20,1,$1+$1,$6,$7,$8,$9,0*
20,1,$1+$1,$8,$9,$2,$3,0*%
G04 Aperture macros list end*
%TA.AperFunction,ComponentPad*%
%ADD10O,3.000000X1.524000*%
%TD*%
%TA.AperFunction,SMDPad,CuDef*%
%ADD11RoundRect,0.250000X-0.325000X-0.650000X0.325000X-0.650000X0.325000X0.650000X-0.325000X0.650000X0*%
%TD*%
%TA.AperFunction,ComponentPad*%
%ADD12C,1.400000*%
%TD*%
%TA.AperFunction,ComponentPad*%
%ADD13R,3.500000X3.500000*%
%TD*%
%TA.AperFunction,ComponentPad*%
%ADD14C,3.500000*%
%TD*%
%TA.AperFunction,ComponentPad*%
%ADD15O,1.524000X3.000000*%
%TD*%
%TA.AperFunction,SMDPad,CuDef*%
%ADD16RoundRect,0.250000X-0.625000X0.375000X-0.625000X-0.375000X0.625000X-0.375000X0.625000X0.375000X0*%
%TD*%
%TA.AperFunction,ComponentPad*%
%ADD17C,1.500000*%
%TD*%
%TA.AperFunction,SMDPad,CuDef*%
%ADD18RoundRect,0.200000X-0.650000X-0.200000X0.650000X-0.200000X0.650000X0.200000X-0.650000X0.200000X0*%
%TD*%
%TA.AperFunction,ComponentPad*%
%ADD19C,0.900000*%
%TD*%
%TA.AperFunction,ComponentPad*%
%ADD20C,8.600000*%
%TD*%
%TA.AperFunction,SMDPad,CuDef*%
%ADD21RoundRect,0.200000X-0.800000X-0.200000X0.800000X-0.200000X0.800000X0.200000X-0.800000X0.200000X0*%
%TD*%
%TA.AperFunction,ComponentPad*%
%ADD22RoundRect,0.381000X0.381000X-0.762000X0.381000X0.762000X-0.381000X0.762000X-0.381000X-0.762000X0*%
%TD*%
%TA.AperFunction,SMDPad,CuDef*%
%ADD23R,1.000000X1.000000*%
%TD*%
%TA.AperFunction,ComponentPad*%
%ADD24R,2.400000X2.400000*%
%TD*%
%TA.AperFunction,ComponentPad*%
%ADD25C,2.400000*%
%TD*%
%TA.AperFunction,Conductor*%
%ADD26C,0.500000*%
%TD*%
%TA.AperFunction,Conductor*%
%ADD27C,1.000000*%
%TD*%
%TA.AperFunction,Conductor*%
%ADD28C,0.800000*%
%TD*%
G04 APERTURE END LIST*
D10*
%TO.P,C1,1*%
%TO.N,VCC*%
X17500000Y1712000D03*
D11*
X18925000Y1712000D03*
%TO.P,C1,2*%
%TO.N,Net-(C1-Pad2)*%
X21875000Y1712000D03*
D10*
X23300000Y1712000D03*
%TD*%
D12*
%TO.P,OUT1,*%
%TO.N,*%
X37350000Y13414000D03*
X37350000Y2414000D03*
D13*
%TO.P,OUT1,1,Pin_1*%
%TO.N,Net-(OUT1-Pad1)*%
X32350000Y10414000D03*
D14*
%TO.P,OUT1,2,Pin_2*%
%TO.N,VCC*%
X32350000Y5414000D03*
%TD*%
D15*
%TO.P,D1,1,K*%
%TO.N,GND*%
X21600000Y10712000D03*
D16*
X21600000Y9112000D03*
%TO.P,D1,2,A*%
%TO.N,Net-(C1-Pad2)*%
X21600000Y6312000D03*
D15*
X21600000Y4712000D03*
%TD*%
D17*
%TO.P,Q1,1,G*%
%TO.N,Net-(Q1-Pad1)*%
X23950000Y11312000D03*
D18*
X25300000Y11312000D03*
D17*
%TO.P,Q1,2,S*%
%TO.N,GND*%
X23950000Y9312000D03*
D18*
X25300000Y9312000D03*
%TO.P,Q1,3,D*%
%TO.N,Net-(OUT1-Pad1)*%
X27400000Y10312000D03*
D17*
X28750000Y10312000D03*
%TD*%
D12*
%TO.P,IN1,*%
%TO.N,*%
X2875000Y2160000D03*
X2875000Y13160000D03*
D13*
%TO.P,IN1,1,Pin_1*%
%TO.N,GND*%
X12875000Y10160000D03*
D14*
%TO.P,IN1,2,Pin_2*%
%TO.N,VCC*%
X12875000Y5160000D03*
%TD*%
D19*
%TO.P,REF\u002A\u002A,1*%
%TO.N,N/C*%
X3775000Y24812000D03*
X4719581Y27092419D03*
X4719581Y22531581D03*
X7000000Y28037000D03*
D20*
X7000000Y24812000D03*
D19*
X7000000Y21587000D03*
X9280419Y27092419D03*
X9280419Y22531581D03*
X10225000Y24812000D03*
X18375000Y24812000D03*
X19319581Y27092419D03*
X19319581Y22531581D03*
X21600000Y28037000D03*
D20*
X21600000Y24812000D03*
D19*
X21600000Y21587000D03*
X23880419Y27092419D03*
X23880419Y22531581D03*
X24825000Y24812000D03*
%TD*%
D17*
%TO.P,U1,1*%
%TO.N,Net-(Q1-Pad1)*%
X23900000Y6476000D03*
D21*
X25300000Y6476000D03*
D17*
%TO.P,U1,2*%
%TO.N,Net-(C1-Pad2)*%
X23900000Y4526000D03*
D21*
X25300000Y4576000D03*
%TO.P,U1,3*%
%TO.N,VCC*%
X27550000Y5526000D03*
D17*
X29000000Y5526000D03*
%TD*%
D22*
%TO.P,Z1,1,K*%
%TO.N,VCC*%
X19400000Y4212000D03*
D23*
X19400000Y6462000D03*
%TO.P,Z1,2,A*%
%TO.N,GND*%
X19400000Y8962000D03*
D22*
X19400000Y11212000D03*
%TD*%
D24*
%TO.P,C2,1*%
%TO.N,VCC*%
X17000000Y5312000D03*
D25*
%TO.P,C2,2*%
%TO.N,GND*%
X17000000Y10312000D03*
%TD*%
D26*
%TO.N,VCC*%
X15200000Y6712000D02*
X15200000Y3812000D01*
D27*
X17000000Y2212000D02*
X16900000Y2112000D01*
D26*
X15200000Y7012000D02*
X15200000Y6712000D01*
D27*
X17000000Y2812000D02*
X17000000Y2212000D01*
X12875000Y5160000D02*
X16848000Y5160000D01*
X16848000Y5160000D02*
X17000000Y5312000D01*
X32238000Y5526000D02*
X32350000Y5414000D01*
X17000000Y5312000D02*
X17000000Y2812000D01*
X29000000Y5526000D02*
X32238000Y5526000D01*
%TO.N,GND*%
X17000000Y10312000D02*
X13076000Y10312000D01*
X13076000Y10312000D02*
X12924000Y10160000D01*
D28*
X19400000Y11212000D02*
X19400000Y8962000D01*
D26*
%TO.N,Net-(C1-Pad2)*%
X23300000Y3926000D02*
X23900000Y4526000D01*
X24600000Y4526000D02*
X23486000Y4526000D01*
X23300000Y1712000D02*
X23300000Y3926000D01*
X24293000Y4510000D02*
X24400000Y4403000D01*
X24573000Y4576000D02*
X24400000Y4403000D01*
%TO.N,Net-(OUT1-Pad1)*%
X28770000Y10532000D02*
X28550000Y10312000D01*
D27*
X32248000Y10312000D02*
X32350000Y10414000D01*
X28750000Y10312000D02*
X32248000Y10312000D01*
D26*
X31248000Y9312000D02*
X32350000Y10414000D01*
%TD*%
%TA.AperFunction,Conductor*%
%TO.N,VCC*%
G36*
X2937853Y16235998D02*
G01*
X2984346Y16182342D01*
X2995344Y16120115D01*
X2987308Y16018005D01*
X2986835Y16012000D01*
X3005465Y15775289D01*
X3006619Y15770482D01*
X3006620Y15770476D01*
X3017697Y15724338D01*
X3060895Y15544406D01*
X3062788Y15539835D01*
X3062789Y15539833D01*
X3138312Y15357504D01*
X3151760Y15325037D01*
X3154346Y15320817D01*
X3273241Y15126798D01*
X3273245Y15126792D01*
X3275824Y15122584D01*
X3430031Y14942031D01*
X3610584Y14787824D01*
X3614792Y14785245D01*
X3614798Y14785241D01*
X3761781Y14695170D01*
X3813037Y14663760D01*
X3817607Y14661867D01*
X3817611Y14661865D01*
X3944839Y14609166D01*
X4032406Y14572895D01*
X4078870Y14561740D01*
X4258476Y14518620D01*
X4258482Y14518619D01*
X4263289Y14517465D01*
X4500000Y14498835D01*
X4736711Y14517465D01*
X4741518Y14518619D01*
X4741524Y14518620D01*
X4921130Y14561740D01*
X4967594Y14572895D01*
X5055161Y14609166D01*
X5182389Y14661865D01*
X5182393Y14661867D01*
X5186963Y14663760D01*
X5238219Y14695170D01*
X5385202Y14785241D01*
X5385208Y14785245D01*
X5389416Y14787824D01*
X5569969Y14942031D01*
X5724176Y15122584D01*
X5726755Y15126792D01*
X5726759Y15126798D01*
X5845654Y15320817D01*
X5848240Y15325037D01*
X5861689Y15357504D01*
X5937211Y15539833D01*
X5937212Y15539835D01*
X5939105Y15544406D01*
X5982303Y15724338D01*
X5993380Y15770476D01*
X5993381Y15770482D01*
X5994535Y15775289D01*
X6013165Y16012000D01*
X6004656Y16120115D01*
X6019252Y16189594D01*
X6069094Y16240153D01*
X6130268Y16256000D01*
X24869732Y16256000D01*
X24937853Y16235998D01*
X24984346Y16182342D01*
X24995344Y16120115D01*
X24987308Y16018005D01*
X24986835Y16012000D01*
X25005465Y15775289D01*
X25006619Y15770482D01*
X25006620Y15770476D01*
X25017697Y15724338D01*
X25060895Y15544406D01*
X25062788Y15539835D01*
X25062789Y15539833D01*
X25138312Y15357504D01*
X25151760Y15325037D01*
X25154346Y15320817D01*
X25273241Y15126798D01*
X25273245Y15126792D01*
X25275824Y15122584D01*
X25430031Y14942031D01*
X25610584Y14787824D01*
X25614792Y14785245D01*
X25614798Y14785241D01*
X25761781Y14695170D01*
X25813037Y14663760D01*
X25817607Y14661867D01*
X25817611Y14661865D01*
X25944839Y14609166D01*
X26032406Y14572895D01*
X26078870Y14561740D01*
X26258476Y14518620D01*
X26258482Y14518619D01*
X26263289Y14517465D01*
X26500000Y14498835D01*
X26736711Y14517465D01*
X26741518Y14518619D01*
X26741524Y14518620D01*
X26921130Y14561740D01*
X26967594Y14572895D01*
X27055161Y14609166D01*
X27182389Y14661865D01*
X27182393Y14661867D01*
X27186963Y14663760D01*
X27238219Y14695170D01*
X27385202Y14785241D01*
X27385208Y14785245D01*
X27389416Y14787824D01*
X27569969Y14942031D01*
X27724176Y15122584D01*
X27726755Y15126792D01*
X27726759Y15126798D01*
X27845654Y15320817D01*
X27848240Y15325037D01*
X27861689Y15357504D01*
X27937211Y15539833D01*
X27937212Y15539835D01*
X27939105Y15544406D01*
X27982303Y15724338D01*
X27993380Y15770476D01*
X27993381Y15770482D01*
X27994535Y15775289D01*
X28013165Y16012000D01*
X28004656Y16120115D01*
X28019252Y16189594D01*
X28069094Y16240153D01*
X28130268Y16256000D01*
X28389672Y16256000D01*
X28457793Y16235998D01*
X28484402Y16213079D01*
X28587336Y16095707D01*
X28787657Y15920035D01*
X28855373Y15874790D01*
X28996906Y15780223D01*
X29009193Y15772013D01*
X29012886Y15770192D01*
X29012891Y15770189D01*
X29244464Y15655994D01*
X29244472Y15655991D01*
X29248156Y15654174D01*
X29252050Y15652852D01*
X29252053Y15652851D01*
X29496545Y15569861D01*
X29496548Y15569860D01*
X29500455Y15568534D01*
X29504503Y15567729D01*
X29504510Y15567727D01*
X29757726Y15517365D01*
X29757728Y15517365D01*
X29761774Y15516560D01*
X29765890Y15516290D01*
X29765892Y15516290D01*
X29831294Y15512005D01*
X29993753Y15501359D01*
X30006403Y15499885D01*
X30015089Y15498424D01*
X30021618Y15498344D01*
X30022782Y15498330D01*
X30022785Y15498330D01*
X30027641Y15498271D01*
X30036962Y15499606D01*
X30054679Y15502143D01*
X30072772Y15503416D01*
X32324760Y15499301D01*
X34993497Y15494425D01*
X35061579Y15474298D01*
X35109674Y15416643D01*
X35149366Y15320817D01*
X35151760Y15315037D01*
X35154346Y15310817D01*
X35273241Y15116798D01*
X35273245Y15116792D01*
X35275824Y15112584D01*
X35430031Y14932031D01*
X35610584Y14777824D01*
X35614792Y14775245D01*
X35614798Y14775241D01*
X35799811Y14661865D01*
X35813037Y14653760D01*
X35817607Y14651867D01*
X35817611Y14651865D01*
X36011052Y14571740D01*
X36032406Y14562895D01*
X36069640Y14553956D01*
X36258476Y14508620D01*
X36258482Y14508619D01*
X36263289Y14507465D01*
X36427547Y14494537D01*
X36493886Y14469253D01*
X36536026Y14412115D01*
X36540585Y14341265D01*
X36506754Y14279831D01*
X36420699Y14193776D01*
X36299411Y14020558D01*
X36297090Y14015580D01*
X36297088Y14015577D01*
X36212367Y13833892D01*
X36210044Y13828910D01*
X36155314Y13624655D01*
X36136884Y13414000D01*
X36155314Y13203345D01*
X36210044Y12999090D01*
X36212366Y12994109D01*
X36212367Y12994108D01*
X36275910Y12857841D01*
X36299411Y12807442D01*
X36420699Y12634224D01*
X36570224Y12484699D01*
X36743442Y12363411D01*
X36748420Y12361090D01*
X36748423Y12361088D01*
X36930108Y12276367D01*
X36935090Y12274044D01*
X36940398Y12272622D01*
X36940400Y12272621D01*
X37134030Y12220738D01*
X37134032Y12220738D01*
X37139345Y12219314D01*
X37350000Y12200884D01*
X37560655Y12219314D01*
X37565968Y12220738D01*
X37565970Y12220738D01*
X37759600Y12272621D01*
X37759602Y12272622D01*
X37764910Y12274044D01*
X37769892Y12276367D01*
X37951577Y12361088D01*
X37951580Y12361090D01*
X37956558Y12363411D01*
X38129776Y12484699D01*
X38279301Y12634224D01*
X38400589Y12807442D01*
X38424091Y12857841D01*
X38487633Y12994108D01*
X38487634Y12994109D01*
X38489956Y12999090D01*
X38544686Y13203345D01*
X38563116Y13414000D01*
X38544686Y13624655D01*
X38489956Y13828910D01*
X38487633Y13833892D01*
X38402912Y14015577D01*
X38402910Y14015580D01*
X38400589Y14020558D01*
X38279301Y14193776D01*
X38129776Y14343301D01*
X37956558Y14464589D01*
X37951580Y14466910D01*
X37951577Y14466912D01*
X37769892Y14551633D01*
X37769891Y14551634D01*
X37764910Y14553956D01*
X37759602Y14555378D01*
X37759600Y14555379D01*
X37565970Y14607262D01*
X37565968Y14607262D01*
X37560655Y14608686D01*
X37555179Y14609165D01*
X37555174Y14609166D01*
X37528367Y14611511D01*
X37525027Y14611803D01*
X37458909Y14637666D01*
X37417269Y14695170D01*
X37413328Y14766057D01*
X37448337Y14827821D01*
X37454177Y14833135D01*
X37566213Y14928823D01*
X37569969Y14932031D01*
X37724176Y15112584D01*
X37726755Y15116792D01*
X37726759Y15116798D01*
X37845654Y15310817D01*
X37848240Y15315037D01*
X37850635Y15320817D01*
X37891334Y15419075D01*
X37935882Y15474356D01*
X38006906Y15496854D01*
X38411285Y15499539D01*
X38431488Y15498043D01*
X38453103Y15494678D01*
X38462003Y15495842D01*
X38462011Y15495842D01*
X38465777Y15496335D01*
X38493093Y15496920D01*
X38568116Y15490358D01*
X38624742Y15485405D01*
X38646363Y15481593D01*
X38796056Y15441485D01*
X38816689Y15433975D01*
X38848643Y15419075D01*
X38957135Y15368485D01*
X38976156Y15357504D01*
X39103103Y15268616D01*
X39119928Y15254497D01*
X39229497Y15144928D01*
X39243616Y15128103D01*
X39332504Y15001156D01*
X39343485Y14982135D01*
X39408974Y14841692D01*
X39416486Y14821052D01*
X39456591Y14671368D01*
X39460405Y14649738D01*
X39466961Y14574789D01*
X39468659Y14555379D01*
X39471317Y14524986D01*
X39470762Y14508504D01*
X39471169Y14508499D01*
X39471059Y14499527D01*
X39469678Y14490655D01*
X39470842Y14481751D01*
X39470842Y14481750D01*
X39473762Y14459410D01*
X39474825Y14442949D01*
X39461551Y1573564D01*
X39460051Y1554309D01*
X39459215Y1548937D01*
X39456309Y1530276D01*
X39457966Y1517602D01*
X39458551Y1490293D01*
X39447033Y1358641D01*
X39447033Y1358640D01*
X39443220Y1337015D01*
X39422084Y1258136D01*
X39403111Y1187327D01*
X39395599Y1166688D01*
X39330107Y1026240D01*
X39319125Y1007219D01*
X39230238Y880275D01*
X39216120Y863451D01*
X39106549Y753880D01*
X39089725Y739762D01*
X38962781Y650875D01*
X38943760Y639893D01*
X38803312Y574401D01*
X38782672Y566889D01*
X38632985Y526780D01*
X38611362Y522968D01*
X38552206Y517792D01*
X38486607Y512053D01*
X38470129Y512607D01*
X38470124Y512200D01*
X38461147Y512310D01*
X38452276Y513691D01*
X38443374Y512527D01*
X38443372Y512527D01*
X38429548Y510719D01*
X38421364Y509649D01*
X38404772Y508585D01*
X38364867Y508666D01*
X38010711Y509389D01*
X37942631Y529530D01*
X37894172Y588117D01*
X37852934Y690007D01*
X37822943Y739762D01*
X37732048Y890552D01*
X37729476Y894819D01*
X37628289Y1014866D01*
X37603031Y1044832D01*
X37574421Y1109810D01*
X37585483Y1179939D01*
X37632704Y1232956D01*
X37666761Y1247745D01*
X37759600Y1272621D01*
X37759602Y1272622D01*
X37764910Y1274044D01*
X37769892Y1276367D01*
X37951577Y1361088D01*
X37951580Y1361090D01*
X37956558Y1363411D01*
X38129776Y1484699D01*
X38279301Y1634224D01*
X38400589Y1807442D01*
X38479758Y1977219D01*
X38487633Y1994108D01*
X38487634Y1994109D01*
X38489956Y1999090D01*
X38544686Y2203345D01*
X38563116Y2414000D01*
X38544686Y2624655D01*
X38530448Y2677791D01*
X38491379Y2823600D01*
X38491378Y2823602D01*
X38489956Y2828910D01*
X38480775Y2848599D01*
X38402912Y3015577D01*
X38402910Y3015580D01*
X38400589Y3020558D01*
X38279301Y3193776D01*
X38129776Y3343301D01*
X37956558Y3464589D01*
X37951580Y3466910D01*
X37951577Y3466912D01*
X37769892Y3551633D01*
X37769891Y3551634D01*
X37764910Y3553956D01*
X37759602Y3555378D01*
X37759600Y3555379D01*
X37565970Y3607262D01*
X37565968Y3607262D01*
X37560655Y3608686D01*
X37350000Y3627116D01*
X37139345Y3608686D01*
X37134032Y3607262D01*
X37134030Y3607262D01*
X36940400Y3555379D01*
X36940398Y3555378D01*
X36935090Y3553956D01*
X36930109Y3551634D01*
X36930108Y3551633D01*
X36748423Y3466912D01*
X36748420Y3466910D01*
X36743442Y3464589D01*
X36570224Y3343301D01*
X36420699Y3193776D01*
X36299411Y3020558D01*
X36297090Y3015580D01*
X36297088Y3015577D01*
X36219225Y2848599D01*
X36210044Y2828910D01*
X36208622Y2823602D01*
X36208621Y2823600D01*
X36169552Y2677791D01*
X36155314Y2624655D01*
X36136884Y2414000D01*
X36155314Y2203345D01*
X36210044Y1999090D01*
X36212366Y1994109D01*
X36212367Y1994108D01*
X36220243Y1977219D01*
X36299411Y1807442D01*
X36339352Y1750400D01*
X36368418Y1708889D01*
X36391106Y1641615D01*
X36373821Y1572755D01*
X36322051Y1524171D01*
X36274884Y1510991D01*
X36266352Y1510334D01*
X36266347Y1510333D01*
X36261385Y1509951D01*
X36256535Y1508791D01*
X36033642Y1455479D01*
X36033638Y1455478D01*
X36028802Y1454321D01*
X35807858Y1362813D01*
X35604050Y1237704D01*
X35600274Y1234469D01*
X35600273Y1234468D01*
X35426231Y1085348D01*
X35426226Y1085343D01*
X35422448Y1082106D01*
X35419225Y1078314D01*
X35419223Y1078312D01*
X35368488Y1018621D01*
X35267571Y899890D01*
X35264983Y895636D01*
X35174200Y746424D01*
X35143270Y695588D01*
X35141387Y690990D01*
X35141385Y690986D01*
X35101150Y592739D01*
X35056823Y537280D01*
X34984568Y514491D01*
X24938191Y513086D01*
X24870068Y533079D01*
X24823568Y586728D01*
X24813454Y657000D01*
X24842938Y721585D01*
X24864639Y741402D01*
X24871526Y746351D01*
X24954245Y831710D01*
X25025452Y905189D01*
X25025454Y905192D01*
X25029355Y909217D01*
X25095969Y1008350D01*
X25152721Y1092805D01*
X25152724Y1092810D01*
X25155847Y1097458D01*
X25160075Y1107088D01*
X25244750Y1299983D01*
X25247007Y1305124D01*
X25260599Y1361739D01*
X25298640Y1520192D01*
X25298641Y1520198D01*
X25299950Y1525651D01*
X25310516Y1708889D01*
X25312683Y1746463D01*
X25312683Y1746466D01*
X25313006Y1752069D01*
X25285759Y1977219D01*
X25219073Y2193987D01*
X25115054Y2395519D01*
X24976991Y2575447D01*
X24886150Y2658106D01*
X24813395Y2724308D01*
X24813392Y2724310D01*
X24809248Y2728081D01*
X24752889Y2763435D01*
X24621882Y2845616D01*
X24621878Y2845618D01*
X24617126Y2848599D01*
X24406699Y2933190D01*
X24184618Y2979181D01*
X24180007Y2979447D01*
X24180006Y2979447D01*
X24177247Y2979606D01*
X24176343Y2979929D01*
X24175425Y2980050D01*
X24175451Y2980248D01*
X24110391Y3003496D01*
X24067063Y3059739D01*
X24058500Y3105397D01*
X24058500Y3168891D01*
X24078502Y3237012D01*
X24132158Y3283505D01*
X24151888Y3290598D01*
X24326765Y3337457D01*
X24326764Y3337457D01*
X24332076Y3338880D01*
X24531654Y3431944D01*
X24635004Y3504311D01*
X31152568Y3504311D01*
X31162451Y3491821D01*
X31215135Y3456619D01*
X31222286Y3452490D01*
X31480349Y3325228D01*
X31487953Y3322078D01*
X31760420Y3229588D01*
X31768383Y3227454D01*
X32050600Y3171317D01*
X32058751Y3170244D01*
X32345881Y3151425D01*
X32354119Y3151425D01*
X32641249Y3170244D01*
X32649400Y3171317D01*
X32931617Y3227454D01*
X32939580Y3229588D01*
X33212047Y3322078D01*
X33219651Y3325228D01*
X33477714Y3452490D01*
X33484865Y3456619D01*
X33538983Y3492779D01*
X33547273Y3502698D01*
X33540017Y3516876D01*
X32362812Y4694081D01*
X32348868Y4701695D01*
X32347035Y4701564D01*
X32340420Y4697313D01*
X31158764Y3515657D01*
X31152568Y3504311D01*
X24635004Y3504311D01*
X24670762Y3529349D01*
X24707527Y3555092D01*
X24707529Y3555094D01*
X24712038Y3558251D01*
X24784382Y3630595D01*
X24846694Y3664621D01*
X24873477Y3667500D01*
X26086730Y3667501D01*
X26156634Y3667501D01*
X26159492Y3667764D01*
X26159501Y3667764D01*
X26195004Y3671026D01*
X26230062Y3674247D01*
X26236441Y3676246D01*
X26386450Y3723256D01*
X26386452Y3723257D01*
X26393699Y3725528D01*
X26540381Y3814361D01*
X26661639Y3935619D01*
X26750472Y4082301D01*
X26801753Y4245938D01*
X26808500Y4319365D01*
X26808500Y4354932D01*
X28541659Y4354932D01*
X28545401Y4349933D01*
X28563106Y4341677D01*
X28573410Y4337927D01*
X28775401Y4283804D01*
X28786196Y4281901D01*
X28994525Y4263674D01*
X29005475Y4263674D01*
X29213804Y4281901D01*
X29224599Y4283804D01*
X29426590Y4337927D01*
X29436894Y4341677D01*
X29447974Y4346844D01*
X29458558Y4356163D01*
X29456751Y4362142D01*
X29012812Y4806081D01*
X28998868Y4813695D01*
X28997035Y4813564D01*
X28990420Y4809313D01*
X28548419Y4367312D01*
X28541659Y4354932D01*
X26808500Y4354932D01*
X26808500Y4492001D01*
X26828501Y4560120D01*
X26882156Y4606613D01*
X26934499Y4618000D01*
X27131885Y4618000D01*
X27147124Y4622475D01*
X27148329Y4623865D01*
X27150000Y4631548D01*
X27150000Y4636116D01*
X27950000Y4636116D01*
X27954475Y4620877D01*
X27955865Y4619672D01*
X27963548Y4618001D01*
X28054234Y4618001D01*
X28065259Y4621238D01*
X28062021Y4628329D01*
X27962812Y4727538D01*
X27952723Y4733047D01*
X27950000Y4725746D01*
X27950000Y4636116D01*
X27150000Y4636116D01*
X27150000Y5524868D01*
X29712305Y5524868D01*
X29712436Y5523035D01*
X29716687Y5516420D01*
X30182283Y5050824D01*
X30216309Y4988512D01*
X30211244Y4917697D01*
X30182283Y4872634D01*
X30172712Y4863063D01*
X30162493Y4844348D01*
X30162432Y4837524D01*
X30163456Y4832374D01*
X30165586Y4824427D01*
X30258078Y4551953D01*
X30261228Y4544349D01*
X30388494Y4286279D01*
X30392610Y4279149D01*
X30428780Y4225015D01*
X30438698Y4216727D01*
X30452876Y4223983D01*
X31630081Y5401188D01*
X31636459Y5412868D01*
X33062305Y5412868D01*
X33062436Y5411035D01*
X33066687Y5404420D01*
X34248343Y4222764D01*
X34259690Y4216568D01*
X34272177Y4226448D01*
X34307390Y4279149D01*
X34311506Y4286279D01*
X34438772Y4544349D01*
X34441922Y4551953D01*
X34534412Y4824420D01*
X34536546Y4832383D01*
X34592683Y5114600D01*
X34593756Y5122751D01*
X34612575Y5409881D01*
X34612575Y5418119D01*
X34593756Y5705249D01*
X34592683Y5713400D01*
X34536546Y5995617D01*
X34534412Y6003580D01*
X34441922Y6276047D01*
X34438772Y6283651D01*
X34311506Y6541721D01*
X34307390Y6548851D01*
X34271220Y6602985D01*
X34261302Y6611273D01*
X34247124Y6604017D01*
X33069919Y5426812D01*
X33062305Y5412868D01*
X31636459Y5412868D01*
X31637695Y5415132D01*
X31637564Y5416965D01*
X31633313Y5423580D01*
X30451657Y6605236D01*
X30440310Y6611432D01*
X30427823Y6601552D01*
X30392610Y6548851D01*
X30388494Y6541721D01*
X30261228Y6283651D01*
X30258078Y6276047D01*
X30220192Y6164437D01*
X30218800Y6131048D01*
X30227892Y6092062D01*
X30204076Y6025179D01*
X30191188Y6010081D01*
X29719919Y5538812D01*
X29712305Y5524868D01*
X27150000Y5524868D01*
X27150000Y6329765D01*
X27950000Y6329765D01*
X27953237Y6318740D01*
X27960328Y6321978D01*
X28059538Y6421188D01*
X28065047Y6431277D01*
X28057746Y6434000D01*
X27968115Y6434000D01*
X27952876Y6429525D01*
X27951671Y6428135D01*
X27950000Y6420452D01*
X27950000Y6329765D01*
X27150000Y6329765D01*
X27150000Y6415884D01*
X27145525Y6431123D01*
X27144135Y6432328D01*
X27136452Y6433999D01*
X26934500Y6433999D01*
X26866379Y6454001D01*
X26819886Y6507657D01*
X26808500Y6559998D01*
X26808499Y6695837D01*
X28541442Y6695837D01*
X28543249Y6689858D01*
X28987188Y6245919D01*
X29001132Y6238305D01*
X29002965Y6238436D01*
X29009580Y6242687D01*
X29451581Y6684688D01*
X29458341Y6697068D01*
X29454599Y6702067D01*
X29436894Y6710323D01*
X29426590Y6714073D01*
X29224599Y6768196D01*
X29213804Y6770099D01*
X29005475Y6788326D01*
X28994525Y6788326D01*
X28786196Y6770099D01*
X28775401Y6768196D01*
X28573410Y6714073D01*
X28563106Y6710323D01*
X28552026Y6705156D01*
X28541442Y6695837D01*
X26808499Y6695837D01*
X26808499Y6729750D01*
X26808499Y6732634D01*
X26808062Y6737400D01*
X26802364Y6799408D01*
X26801753Y6806062D01*
X26750472Y6969699D01*
X26661639Y7116381D01*
X26540381Y7237639D01*
X26395631Y7325302D01*
X31152727Y7325302D01*
X31159983Y7311124D01*
X32337188Y6133919D01*
X32351132Y6126305D01*
X32352965Y6126436D01*
X32359580Y6130687D01*
X33541236Y7312343D01*
X33547432Y7323689D01*
X33537549Y7336179D01*
X33484865Y7371381D01*
X33477714Y7375510D01*
X33219651Y7502772D01*
X33212047Y7505922D01*
X32939580Y7598412D01*
X32931617Y7600546D01*
X32649400Y7656683D01*
X32641249Y7657756D01*
X32354119Y7676575D01*
X32345881Y7676575D01*
X32058751Y7657756D01*
X32050600Y7656683D01*
X31768383Y7600546D01*
X31760420Y7598412D01*
X31487953Y7505922D01*
X31480349Y7502772D01*
X31222279Y7375506D01*
X31215149Y7371390D01*
X31161015Y7335220D01*
X31152727Y7325302D01*
X26395631Y7325302D01*
X26393699Y7326472D01*
X26386452Y7328743D01*
X26386450Y7328744D01*
X26320164Y7349517D01*
X26230062Y7377753D01*
X26156635Y7384500D01*
X26083756Y7384500D01*
X24823478Y7384499D01*
X24755357Y7404501D01*
X24734383Y7421404D01*
X24712038Y7443749D01*
X24700421Y7451884D01*
X24623246Y7505922D01*
X24531654Y7570056D01*
X24332076Y7663120D01*
X24119371Y7720115D01*
X23900000Y7739307D01*
X23680629Y7720115D01*
X23467924Y7663120D01*
X23374562Y7619585D01*
X23273334Y7572382D01*
X23273329Y7572379D01*
X23268347Y7570056D01*
X23263840Y7566900D01*
X23263838Y7566899D01*
X23092473Y7446908D01*
X23092470Y7446906D01*
X23087962Y7443749D01*
X22932251Y7288038D01*
X22929096Y7283532D01*
X22929090Y7283525D01*
X22921341Y7272457D01*
X22865885Y7228128D01*
X22795265Y7220817D01*
X22729110Y7255552D01*
X22703484Y7281133D01*
X22698303Y7286305D01*
X22692072Y7290146D01*
X22553968Y7375275D01*
X22553966Y7375276D01*
X22547738Y7379115D01*
X22420240Y7421404D01*
X22386389Y7432632D01*
X22386387Y7432632D01*
X22379861Y7434797D01*
X22373025Y7435497D01*
X22373022Y7435498D01*
X22329969Y7439909D01*
X22275400Y7445500D01*
X20924600Y7445500D01*
X20921354Y7445163D01*
X20921350Y7445163D01*
X20825692Y7435238D01*
X20825688Y7435237D01*
X20818834Y7434526D01*
X20812298Y7432345D01*
X20812296Y7432345D01*
X20735687Y7406786D01*
X20651054Y7378550D01*
X20500652Y7285478D01*
X20495479Y7280296D01*
X20484497Y7269295D01*
X20422214Y7235216D01*
X20351394Y7240219D01*
X20294498Y7282748D01*
X20268285Y7317724D01*
X20255724Y7330285D01*
X20153649Y7406786D01*
X20138054Y7415324D01*
X20017606Y7460478D01*
X20002351Y7464105D01*
X19951486Y7469631D01*
X19944672Y7470000D01*
X19918115Y7470000D01*
X19902876Y7465525D01*
X19901671Y7464135D01*
X19900000Y7456452D01*
X19900000Y2647000D01*
X19879998Y2578879D01*
X19826342Y2532386D01*
X19774000Y2521000D01*
X19443115Y2521000D01*
X19427876Y2516525D01*
X19426671Y2515135D01*
X19425000Y2507452D01*
X19425000Y2230115D01*
X19429475Y2214876D01*
X19430865Y2213671D01*
X19438548Y2212000D01*
X19989884Y2212000D01*
X20005123Y2216475D01*
X20006328Y2217865D01*
X20007999Y2225548D01*
X20007999Y2409095D01*
X20007662Y2415614D01*
X20001111Y2478751D01*
X20013976Y2548572D01*
X20062547Y2600354D01*
X20088816Y2611360D01*
X20088801Y2611399D01*
X20090074Y2611888D01*
X20093829Y2613461D01*
X20094967Y2613766D01*
X20107223Y2618471D01*
X20261968Y2697318D01*
X20272982Y2704470D01*
X20407955Y2813768D01*
X20417232Y2823045D01*
X20526530Y2958018D01*
X20533682Y2969032D01*
X20547991Y2997114D01*
X20596739Y3048729D01*
X20665654Y3065795D01*
X20732856Y3042894D01*
X20747943Y3030395D01*
X20775701Y3003496D01*
X20797217Y2982645D01*
X20822736Y2965497D01*
X20869411Y2934133D01*
X20914796Y2879537D01*
X20923459Y2809071D01*
X20906395Y2763436D01*
X20857885Y2684738D01*
X20802203Y2516861D01*
X20791500Y2412400D01*
X20791500Y1011600D01*
X20791837Y1008354D01*
X20791837Y1008350D01*
X20801618Y914086D01*
X20802474Y905834D01*
X20804655Y899298D01*
X20804655Y899296D01*
X20827204Y831710D01*
X20858450Y738054D01*
X20879024Y704807D01*
X20897862Y636355D01*
X20876701Y568586D01*
X20822260Y523014D01*
X20771899Y512504D01*
X20518106Y512469D01*
X20027386Y512401D01*
X19959263Y532394D01*
X19912763Y586043D01*
X19902649Y656315D01*
X19920110Y704518D01*
X19937816Y733241D01*
X19943963Y746424D01*
X19995138Y900710D01*
X19998005Y914086D01*
X20007672Y1008438D01*
X20008000Y1014854D01*
X20008000Y1193885D01*
X20003525Y1209124D01*
X20002135Y1210329D01*
X19994452Y1212000D01*
X15608902Y1212000D01*
X15595371Y1208027D01*
X15594914Y1204843D01*
X15595619Y1202638D01*
X15682798Y1033733D01*
X15688783Y1024302D01*
X15819968Y853337D01*
X15827526Y845118D01*
X15952926Y731013D01*
X15989849Y670373D01*
X15988126Y599397D01*
X15948304Y540620D01*
X15883026Y512703D01*
X15868145Y511819D01*
X6011650Y510441D01*
X5943526Y530434D01*
X5894837Y589166D01*
X5874304Y639893D01*
X5854057Y689914D01*
X5730602Y894709D01*
X5632070Y1011600D01*
X5579693Y1073737D01*
X5579691Y1073739D01*
X5576482Y1077546D01*
X5429139Y1204843D01*
X5399303Y1230620D01*
X5399302Y1230621D01*
X5395533Y1233877D01*
X5192254Y1359814D01*
X5185097Y1362813D01*
X5126902Y1387196D01*
X4971703Y1452222D01*
X4739366Y1508804D01*
X4734408Y1509206D01*
X4734405Y1509207D01*
X4620194Y1518478D01*
X4501022Y1528153D01*
X4496063Y1527771D01*
X4496060Y1527771D01*
X4413076Y1521378D01*
X4262600Y1509786D01*
X4114154Y1474281D01*
X4043250Y1477889D01*
X3985551Y1519257D01*
X3959378Y1585253D01*
X3970650Y1650075D01*
X4012633Y1740108D01*
X4012634Y1740109D01*
X4014956Y1745090D01*
X4018321Y1757646D01*
X4068262Y1944030D01*
X4068262Y1944032D01*
X4069686Y1949345D01*
X4088116Y2160000D01*
X4083339Y2214602D01*
X15599899Y2214602D01*
X15604082Y2212000D01*
X16981885Y2212000D01*
X16997124Y2216475D01*
X16998329Y2217865D01*
X17000000Y2225548D01*
X17000000Y2963885D01*
X16995525Y2979124D01*
X16994135Y2980329D01*
X16986452Y2982000D01*
X16707289Y2982000D01*
X16701694Y2981751D01*
X16541788Y2967479D01*
X16530774Y2965497D01*
X16322935Y2908639D01*
X16312462Y2904745D01*
X16117963Y2811974D01*
X16108352Y2806290D01*
X15933356Y2680541D01*
X15924900Y2673242D01*
X15774944Y2518500D01*
X15767902Y2509803D01*
X15647723Y2330960D01*
X15642337Y2321162D01*
X15601700Y2228588D01*
X15599899Y2214602D01*
X4083339Y2214602D01*
X4069686Y2370655D01*
X4059386Y2409095D01*
X4016379Y2569600D01*
X4016378Y2569602D01*
X4014956Y2574910D01*
X3997713Y2611888D01*
X3927912Y2761577D01*
X3927910Y2761580D01*
X3925589Y2766558D01*
X3804301Y2939776D01*
X3654776Y3089301D01*
X3481558Y3210589D01*
X3476580Y3212910D01*
X3476577Y3212912D01*
X3396374Y3250311D01*
X11677568Y3250311D01*
X11687451Y3237821D01*
X11740135Y3202619D01*
X11747286Y3198490D01*
X12005349Y3071228D01*
X12012953Y3068078D01*
X12285420Y2975588D01*
X12293383Y2973454D01*
X12575600Y2917317D01*
X12583751Y2916244D01*
X12870881Y2897425D01*
X12879119Y2897425D01*
X13166249Y2916244D01*
X13174400Y2917317D01*
X13456617Y2973454D01*
X13464580Y2975588D01*
X13737047Y3068078D01*
X13744651Y3071228D01*
X14002714Y3198490D01*
X14009865Y3202619D01*
X14063983Y3238779D01*
X14072273Y3248698D01*
X14065017Y3262876D01*
X12887812Y4440081D01*
X12873868Y4447695D01*
X12872035Y4447564D01*
X12865420Y4443313D01*
X11683764Y3261657D01*
X11677568Y3250311D01*
X3396374Y3250311D01*
X3294892Y3297633D01*
X3294891Y3297634D01*
X3289910Y3299956D01*
X3284602Y3301378D01*
X3284600Y3301379D01*
X3090970Y3353262D01*
X3090968Y3353262D01*
X3085655Y3354686D01*
X2875000Y3373116D01*
X2664345Y3354686D01*
X2659032Y3353262D01*
X2659030Y3353262D01*
X2465400Y3301379D01*
X2465398Y3301378D01*
X2460090Y3299956D01*
X2455109Y3297634D01*
X2455108Y3297633D01*
X2273423Y3212912D01*
X2273420Y3212910D01*
X2268442Y3210589D01*
X2095224Y3089301D01*
X1945699Y2939776D01*
X1824411Y2766558D01*
X1822090Y2761580D01*
X1822088Y2761577D01*
X1752287Y2611888D01*
X1735044Y2574910D01*
X1733622Y2569602D01*
X1733621Y2569600D01*
X1690614Y2409095D01*
X1680314Y2370655D01*
X1661884Y2160000D01*
X1680314Y1949345D01*
X1681738Y1944032D01*
X1681738Y1944030D01*
X1731680Y1757646D01*
X1735044Y1745090D01*
X1737366Y1740109D01*
X1737367Y1740108D01*
X1786742Y1634224D01*
X1824411Y1553442D01*
X1945699Y1380224D01*
X2095224Y1230699D01*
X2268442Y1109411D01*
X2273420Y1107090D01*
X2273423Y1107088D01*
X2455108Y1022367D01*
X2460090Y1020044D01*
X2465398Y1018622D01*
X2465400Y1018621D01*
X2659030Y966738D01*
X2659032Y966738D01*
X2664345Y965314D01*
X2875000Y946884D01*
X2880475Y947363D01*
X2880476Y947363D01*
X3073212Y964225D01*
X3142816Y950236D01*
X3193809Y900836D01*
X3209999Y831710D01*
X3191833Y773209D01*
X3147133Y699745D01*
X3147130Y699740D01*
X3144547Y695494D01*
X3126272Y650875D01*
X3101838Y591217D01*
X3057510Y535760D01*
X2985618Y512974D01*
X2067561Y510222D01*
X1542796Y508649D01*
X1523036Y510148D01*
X1510719Y512065D01*
X1500276Y513691D01*
X1487602Y512034D01*
X1460293Y511449D01*
X1328636Y522968D01*
X1307015Y526780D01*
X1157328Y566889D01*
X1136688Y574401D01*
X996240Y639893D01*
X977219Y650875D01*
X850275Y739762D01*
X833451Y753880D01*
X723880Y863451D01*
X709762Y880275D01*
X620875Y1007219D01*
X609893Y1026240D01*
X544401Y1166688D01*
X536889Y1187327D01*
X517916Y1258136D01*
X496780Y1337015D01*
X492967Y1358641D01*
X492865Y1359814D01*
X482349Y1480007D01*
X482374Y1502242D01*
X482770Y1506656D01*
X483576Y1511448D01*
X483729Y1524000D01*
X479819Y1551299D01*
X478547Y1569286D01*
X478552Y1573564D01*
X482264Y5155881D01*
X10612425Y5155881D01*
X10631244Y4868751D01*
X10632317Y4860600D01*
X10688454Y4578383D01*
X10690588Y4570420D01*
X10783078Y4297953D01*
X10786228Y4290349D01*
X10913494Y4032279D01*
X10917610Y4025149D01*
X10953780Y3971015D01*
X10963698Y3962727D01*
X10977876Y3969983D01*
X12155081Y5147188D01*
X12161459Y5158868D01*
X13587305Y5158868D01*
X13587436Y5157035D01*
X13591687Y5150420D01*
X14773343Y3968764D01*
X14784690Y3962568D01*
X14797177Y3972448D01*
X14832390Y4025149D01*
X14836506Y4032279D01*
X14963772Y4290349D01*
X14966922Y4297953D01*
X15046688Y4532937D01*
X15087525Y4591013D01*
X15153278Y4617792D01*
X15223070Y4604771D01*
X15274743Y4556084D01*
X15292001Y4492436D01*
X15292001Y4067331D01*
X15292371Y4060510D01*
X15297895Y4009648D01*
X15301521Y3994396D01*
X15346676Y3873946D01*
X15355214Y3858351D01*
X15431715Y3756276D01*
X15444276Y3743715D01*
X15546351Y3667214D01*
X15561946Y3658676D01*
X15682394Y3613522D01*
X15697649Y3609895D01*
X15748514Y3604369D01*
X15755328Y3604000D01*
X16481885Y3604000D01*
X16497124Y3608475D01*
X16498329Y3609865D01*
X16500000Y3617548D01*
X16500000Y3622116D01*
X17500000Y3622116D01*
X17504475Y3606877D01*
X17505865Y3605672D01*
X17513548Y3604001D01*
X18004000Y3604001D01*
X18072121Y3583999D01*
X18118614Y3530343D01*
X18130000Y3478001D01*
X18130000Y3390245D01*
X18130193Y3385319D01*
X18135655Y3315919D01*
X18137602Y3304587D01*
X18181540Y3140611D01*
X18179850Y3069635D01*
X18140056Y3010839D01*
X18074792Y2982891D01*
X18059833Y2982000D01*
X18018115Y2982000D01*
X18002876Y2977525D01*
X18001671Y2976135D01*
X18000000Y2968452D01*
X18000000Y2230115D01*
X18004475Y2214876D01*
X18005865Y2213671D01*
X18013548Y2212000D01*
X18406885Y2212000D01*
X18422124Y2216475D01*
X18423329Y2217865D01*
X18425000Y2225548D01*
X18425000Y3034000D01*
X18445002Y3102121D01*
X18498658Y3148614D01*
X18551000Y3160000D01*
X18881885Y3160000D01*
X18897124Y3164475D01*
X18898329Y3165865D01*
X18900000Y3173548D01*
X18900000Y7451884D01*
X18895525Y7467123D01*
X18894135Y7468328D01*
X18886452Y7469999D01*
X18855331Y7469999D01*
X18848510Y7469629D01*
X18797648Y7464105D01*
X18782396Y7460479D01*
X18661946Y7415324D01*
X18646351Y7406786D01*
X18544276Y7330285D01*
X18531715Y7317724D01*
X18455214Y7215649D01*
X18446676Y7200054D01*
X18408385Y7097915D01*
X18365743Y7041150D01*
X18299181Y7016451D01*
X18276797Y7016882D01*
X18251491Y7019631D01*
X18244672Y7020000D01*
X17518115Y7020000D01*
X17502876Y7015525D01*
X17501671Y7014135D01*
X17500000Y7006452D01*
X17500000Y3622116D01*
X16500000Y3622116D01*
X16500000Y7001884D01*
X16495525Y7017123D01*
X16494135Y7018328D01*
X16486452Y7019999D01*
X15755331Y7019999D01*
X15748510Y7019629D01*
X15697648Y7014105D01*
X15682396Y7010479D01*
X15561946Y6965324D01*
X15546351Y6956786D01*
X15444276Y6880285D01*
X15431715Y6867724D01*
X15355214Y6765649D01*
X15346676Y6750054D01*
X15301522Y6629606D01*
X15297895Y6614351D01*
X15292369Y6563486D01*
X15292000Y6556672D01*
X15292000Y5827566D01*
X15271998Y5759445D01*
X15218342Y5712952D01*
X15148068Y5702848D01*
X15083488Y5732342D01*
X15046687Y5787065D01*
X14966922Y6022047D01*
X14963772Y6029651D01*
X14836506Y6287721D01*
X14832390Y6294851D01*
X14796220Y6348985D01*
X14786302Y6357273D01*
X14772124Y6350017D01*
X13594919Y5172812D01*
X13587305Y5158868D01*
X12161459Y5158868D01*
X12162695Y5161132D01*
X12162564Y5162965D01*
X12158313Y5169580D01*
X10976657Y6351236D01*
X10965310Y6357432D01*
X10952823Y6347552D01*
X10917610Y6294851D01*
X10913494Y6287721D01*
X10786228Y6029651D01*
X10783078Y6022047D01*
X10690588Y5749580D01*
X10688454Y5741617D01*
X10632317Y5459400D01*
X10631244Y5451249D01*
X10612425Y5164119D01*
X10612425Y5155881D01*
X482264Y5155881D01*
X484249Y7071302D01*
X11677727Y7071302D01*
X11684983Y7057124D01*
X12862188Y5879919D01*
X12876132Y5872305D01*
X12877965Y5872436D01*
X12884580Y5876687D01*
X14066236Y7058343D01*
X14072432Y7069689D01*
X14062549Y7082179D01*
X14009865Y7117381D01*
X14002714Y7121510D01*
X13744651Y7248772D01*
X13737047Y7251922D01*
X13464580Y7344412D01*
X13456617Y7346546D01*
X13174400Y7402683D01*
X13166249Y7403756D01*
X12879119Y7422575D01*
X12870881Y7422575D01*
X12583751Y7403756D01*
X12575600Y7402683D01*
X12293383Y7346546D01*
X12285420Y7344412D01*
X12012953Y7251922D01*
X12005349Y7248772D01*
X11747279Y7121506D01*
X11740149Y7117390D01*
X11686015Y7081220D01*
X11677727Y7071302D01*
X484249Y7071302D01*
X484626Y7435498D01*
X485586Y8361866D01*
X10616500Y8361866D01*
X10623255Y8299684D01*
X10674385Y8163295D01*
X10761739Y8046739D01*
X10878295Y7959385D01*
X11014684Y7908255D01*
X11076866Y7901500D01*
X14673134Y7901500D01*
X14735316Y7908255D01*
X14871705Y7959385D01*
X14988261Y8046739D01*
X15075615Y8163295D01*
X15126745Y8299684D01*
X15133500Y8361866D01*
X15133500Y9177500D01*
X15153502Y9245621D01*
X15207158Y9292114D01*
X15259500Y9303500D01*
X15557535Y9303500D01*
X15625656Y9283498D01*
X15658493Y9252889D01*
X15704171Y9191718D01*
X15704176Y9191712D01*
X15706963Y9187980D01*
X15710272Y9184700D01*
X15710277Y9184694D01*
X15847471Y9048693D01*
X15887307Y9009203D01*
X15891069Y9006445D01*
X15891072Y9006442D01*
X16000893Y8925918D01*
X16092094Y8859047D01*
X16096229Y8856871D01*
X16096233Y8856869D01*
X16155761Y8825550D01*
X16316827Y8740809D01*
X16556568Y8657088D01*
X16806050Y8609722D01*
X16926532Y8604989D01*
X17055125Y8599936D01*
X17055130Y8599936D01*
X17059793Y8599753D01*
X17158774Y8610593D01*
X17307569Y8626888D01*
X17307575Y8626889D01*
X17312222Y8627398D01*
X17421680Y8656216D01*
X17553273Y8690862D01*
X17557793Y8692052D01*
X17676353Y8742989D01*
X17786807Y8790443D01*
X17786810Y8790445D01*
X17791110Y8792292D01*
X17795090Y8794755D01*
X17795094Y8794757D01*
X18003064Y8923453D01*
X18003066Y8923455D01*
X18007047Y8925918D01*
X18184091Y9075796D01*
X18249004Y9104544D01*
X18319157Y9093632D01*
X18372275Y9046525D01*
X18391500Y8979628D01*
X18391500Y8413866D01*
X18391869Y8410469D01*
X18392185Y8407560D01*
X18398255Y8351684D01*
X18449385Y8215295D01*
X18536739Y8098739D01*
X18653295Y8011385D01*
X18789684Y7960255D01*
X18851866Y7953500D01*
X19948134Y7953500D01*
X20010316Y7960255D01*
X20146705Y8011385D01*
X20263261Y8098739D01*
X20294924Y8140987D01*
X20351783Y8183502D01*
X20422601Y8188528D01*
X20484768Y8154595D01*
X20501697Y8137695D01*
X20507927Y8133855D01*
X20507928Y8133854D01*
X20645090Y8049306D01*
X20652262Y8044885D01*
X20662896Y8041358D01*
X20813611Y7991368D01*
X20813613Y7991368D01*
X20820139Y7989203D01*
X20826975Y7988503D01*
X20826978Y7988502D01*
X20870031Y7984091D01*
X20924600Y7978500D01*
X22275400Y7978500D01*
X22278646Y7978837D01*
X22278650Y7978837D01*
X22374308Y7988762D01*
X22374312Y7988763D01*
X22381166Y7989474D01*
X22387702Y7991655D01*
X22387704Y7991655D01*
X22536681Y8041358D01*
X22548946Y8045450D01*
X22699348Y8138522D01*
X22824305Y8263697D01*
X22828144Y8269925D01*
X22828148Y8269930D01*
X22890995Y8371886D01*
X22943767Y8419379D01*
X23013839Y8430801D01*
X23078962Y8402527D01*
X23087349Y8394864D01*
X23137962Y8344251D01*
X23318346Y8217944D01*
X23517924Y8124880D01*
X23730629Y8067885D01*
X23950000Y8048693D01*
X24169371Y8067885D01*
X24382076Y8124880D01*
X24581654Y8217944D01*
X24762038Y8344251D01*
X24784382Y8366595D01*
X24846694Y8400621D01*
X24873477Y8403500D01*
X25944583Y8403501D01*
X26006634Y8403501D01*
X26009492Y8403764D01*
X26009501Y8403764D01*
X26045004Y8407026D01*
X26080062Y8410247D01*
X26145650Y8430801D01*
X26236450Y8459256D01*
X26236452Y8459257D01*
X26243699Y8461528D01*
X26390381Y8550361D01*
X26511639Y8671619D01*
X26600472Y8818301D01*
X26651753Y8981938D01*
X26658500Y9055365D01*
X26658499Y9277500D01*
X26678501Y9345620D01*
X26732156Y9392113D01*
X26784499Y9403500D01*
X27447080Y9403501D01*
X27826522Y9403501D01*
X27894643Y9383499D01*
X27915617Y9366596D01*
X27937962Y9344251D01*
X27942471Y9341094D01*
X27942473Y9341092D01*
X27996160Y9303500D01*
X28118346Y9217944D01*
X28317924Y9124880D01*
X28530629Y9067885D01*
X28750000Y9048693D01*
X28969371Y9067885D01*
X29182076Y9124880D01*
X29381654Y9217944D01*
X29471297Y9280713D01*
X29543568Y9303500D01*
X29965500Y9303500D01*
X30033621Y9283498D01*
X30080114Y9229842D01*
X30091500Y9177500D01*
X30091500Y8615866D01*
X30098255Y8553684D01*
X30149385Y8417295D01*
X30236739Y8300739D01*
X30353295Y8213385D01*
X30489684Y8162255D01*
X30551866Y8155500D01*
X34148134Y8155500D01*
X34210316Y8162255D01*
X34346705Y8213385D01*
X34463261Y8300739D01*
X34550615Y8417295D01*
X34601745Y8553684D01*
X34608500Y8615866D01*
X34608500Y12212134D01*
X34601745Y12274316D01*
X34550615Y12410705D01*
X34463261Y12527261D01*
X34346705Y12614615D01*
X34210316Y12665745D01*
X34148134Y12672500D01*
X30551866Y12672500D01*
X30489684Y12665745D01*
X30353295Y12614615D01*
X30236739Y12527261D01*
X30149385Y12410705D01*
X30098255Y12274316D01*
X30091500Y12212134D01*
X30091500Y11446500D01*
X30071498Y11378379D01*
X30017842Y11331886D01*
X29965500Y11320500D01*
X29543568Y11320500D01*
X29471297Y11343287D01*
X29438958Y11365931D01*
X29381654Y11406056D01*
X29182076Y11499120D01*
X28969371Y11556115D01*
X28750000Y11575307D01*
X28530629Y11556115D01*
X28317924Y11499120D01*
X28224562Y11455585D01*
X28123334Y11408382D01*
X28123329Y11408379D01*
X28118347Y11406056D01*
X28113840Y11402900D01*
X28113838Y11402899D01*
X27942473Y11282908D01*
X27942470Y11282906D01*
X27937962Y11279749D01*
X27915618Y11257405D01*
X27853306Y11223379D01*
X27826523Y11220500D01*
X27447081Y11220500D01*
X26784500Y11220499D01*
X26716379Y11240501D01*
X26669886Y11294157D01*
X26658500Y11346498D01*
X26658499Y11565750D01*
X26658499Y11568634D01*
X26651753Y11642062D01*
X26642608Y11671245D01*
X26602744Y11798450D01*
X26602743Y11798452D01*
X26600472Y11805699D01*
X26511639Y11952381D01*
X26390381Y12073639D01*
X26243699Y12162472D01*
X26236452Y12164743D01*
X26236450Y12164744D01*
X26170164Y12185517D01*
X26080062Y12213753D01*
X26006635Y12220500D01*
X25944278Y12220500D01*
X24873478Y12220499D01*
X24805357Y12240501D01*
X24784383Y12257404D01*
X24762038Y12279749D01*
X24750041Y12288150D01*
X24646550Y12360615D01*
X24581654Y12406056D01*
X24382076Y12499120D01*
X24169371Y12556115D01*
X23950000Y12575307D01*
X23730629Y12556115D01*
X23517924Y12499120D01*
X23447445Y12466255D01*
X23323334Y12408382D01*
X23323329Y12408379D01*
X23318347Y12406056D01*
X23313840Y12402900D01*
X23313838Y12402899D01*
X23142473Y12282908D01*
X23142470Y12282906D01*
X23137962Y12279749D01*
X22982251Y12124038D01*
X22979093Y12119528D01*
X22979088Y12119522D01*
X22930090Y12049545D01*
X22874633Y12005216D01*
X22804014Y11997907D01*
X22740653Y12029937D01*
X22713151Y12067571D01*
X22700410Y12094284D01*
X22700409Y12094285D01*
X22697993Y12099351D01*
X22694715Y12103913D01*
X22568926Y12278966D01*
X22568924Y12278968D01*
X22565649Y12283526D01*
X22443088Y12402297D01*
X22406811Y12437452D01*
X22406808Y12437454D01*
X22402783Y12441355D01*
X22316819Y12499120D01*
X22219195Y12564721D01*
X22219190Y12564724D01*
X22214542Y12567847D01*
X22209410Y12570100D01*
X22209406Y12570102D01*
X22066754Y12632722D01*
X22006876Y12659007D01*
X21950673Y12672500D01*
X21791808Y12710640D01*
X21791802Y12710641D01*
X21786349Y12711950D01*
X21673140Y12718478D01*
X21565537Y12724683D01*
X21565534Y12724683D01*
X21559931Y12725006D01*
X21334781Y12697759D01*
X21329419Y12696109D01*
X21329417Y12696109D01*
X21252675Y12672500D01*
X21118013Y12631073D01*
X21113029Y12628501D01*
X21113030Y12628501D01*
X20967607Y12553442D01*
X20916481Y12527054D01*
X20912033Y12523641D01*
X20866359Y12488594D01*
X20736553Y12388991D01*
X20735138Y12390835D01*
X20680401Y12363872D01*
X20609862Y12371911D01*
X20554866Y12416812D01*
X20546555Y12430807D01*
X20534104Y12455244D01*
X20534102Y12455248D01*
X20531107Y12461125D01*
X20473194Y12532642D01*
X20417587Y12601310D01*
X20413436Y12606436D01*
X20351304Y12656750D01*
X20273255Y12719953D01*
X20273254Y12719954D01*
X20268125Y12724107D01*
X20101524Y12808994D01*
X20088727Y12812423D01*
X19926492Y12855894D01*
X19926488Y12855895D01*
X19920915Y12857388D01*
X19909534Y12858284D01*
X19845714Y12863307D01*
X19845706Y12863307D01*
X19843258Y12863500D01*
X18956742Y12863500D01*
X18954294Y12863307D01*
X18954286Y12863307D01*
X18890466Y12858284D01*
X18879085Y12857388D01*
X18873512Y12855895D01*
X18873508Y12855894D01*
X18711273Y12812423D01*
X18698476Y12808994D01*
X18531875Y12724107D01*
X18526746Y12719954D01*
X18526745Y12719953D01*
X18448696Y12656750D01*
X18386564Y12606436D01*
X18382413Y12601310D01*
X18326807Y12532642D01*
X18268893Y12461125D01*
X18184006Y12294524D01*
X18182298Y12288151D01*
X18182298Y12288150D01*
X18139369Y12127935D01*
X18135612Y12113915D01*
X18129500Y12036258D01*
X18129500Y11848656D01*
X18109498Y11780535D01*
X18055842Y11734042D01*
X17985568Y11723938D01*
X17931681Y11745128D01*
X17873400Y11785559D01*
X17873388Y11785566D01*
X17869561Y11788221D01*
X17865384Y11790281D01*
X17865377Y11790285D01*
X17645996Y11898472D01*
X17645992Y11898473D01*
X17641810Y11900536D01*
X17399960Y11977953D01*
X17395355Y11978703D01*
X17153935Y12018020D01*
X17153934Y12018020D01*
X17149323Y12018771D01*
X17022365Y12020433D01*
X16900083Y12022034D01*
X16900080Y12022034D01*
X16895406Y12022095D01*
X16643787Y11987851D01*
X16399993Y11916792D01*
X16169380Y11810478D01*
X16165471Y11807915D01*
X15960928Y11673811D01*
X15960923Y11673807D01*
X15957015Y11671245D01*
X15767562Y11502152D01*
X15764573Y11498558D01*
X15764568Y11498553D01*
X15654267Y11365931D01*
X15595329Y11326347D01*
X15557393Y11320500D01*
X15259500Y11320500D01*
X15191379Y11340502D01*
X15144886Y11394158D01*
X15133500Y11446500D01*
X15133500Y11958134D01*
X15126745Y12020316D01*
X15075615Y12156705D01*
X14988261Y12273261D01*
X14871705Y12360615D01*
X14735316Y12411745D01*
X14673134Y12418500D01*
X11076866Y12418500D01*
X11014684Y12411745D01*
X10878295Y12360615D01*
X10761739Y12273261D01*
X10674385Y12156705D01*
X10623255Y12020316D01*
X10616500Y11958134D01*
X10616500Y8361866D01*
X485586Y8361866D01*
X490558Y13160000D01*
X1661884Y13160000D01*
X1680314Y12949345D01*
X1735044Y12745090D01*
X1737366Y12740109D01*
X1737367Y12740108D01*
X1819152Y12564721D01*
X1824411Y12553442D01*
X1945699Y12380224D01*
X2095224Y12230699D01*
X2268442Y12109411D01*
X2273420Y12107090D01*
X2273423Y12107088D01*
X2455108Y12022367D01*
X2460090Y12020044D01*
X2465398Y12018622D01*
X2465400Y12018621D01*
X2659030Y11966738D01*
X2659032Y11966738D01*
X2664345Y11965314D01*
X2875000Y11946884D01*
X3085655Y11965314D01*
X3090968Y11966738D01*
X3090970Y11966738D01*
X3284600Y12018621D01*
X3284602Y12018622D01*
X3289910Y12020044D01*
X3294892Y12022367D01*
X3476577Y12107088D01*
X3476580Y12107090D01*
X3481558Y12109411D01*
X3654776Y12230699D01*
X3804301Y12380224D01*
X3925589Y12553442D01*
X3930849Y12564721D01*
X4012633Y12740108D01*
X4012634Y12740109D01*
X4014956Y12745090D01*
X4069686Y12949345D01*
X4088116Y13160000D01*
X4069686Y13370655D01*
X4014956Y13574910D01*
X3925589Y13766558D01*
X3804301Y13939776D01*
X3654776Y14089301D01*
X3481558Y14210589D01*
X3476580Y14212910D01*
X3476577Y14212912D01*
X3294892Y14297633D01*
X3294891Y14297634D01*
X3289910Y14299956D01*
X3284602Y14301378D01*
X3284600Y14301379D01*
X3090970Y14353262D01*
X3090968Y14353262D01*
X3085655Y14354686D01*
X2875000Y14373116D01*
X2664345Y14354686D01*
X2659032Y14353262D01*
X2659030Y14353262D01*
X2465400Y14301379D01*
X2465398Y14301378D01*
X2460090Y14299956D01*
X2455109Y14297634D01*
X2455108Y14297633D01*
X2273423Y14212912D01*
X2273420Y14212910D01*
X2268442Y14210589D01*
X2095224Y14089301D01*
X1945699Y13939776D01*
X1824411Y13766558D01*
X1735044Y13574910D01*
X1680314Y13370655D01*
X1661884Y13160000D01*
X490558Y13160000D01*
X493636Y16130131D01*
X513709Y16198231D01*
X567413Y16244668D01*
X619636Y16256000D01*
X2869732Y16256000D01*
X2937853Y16235998D01*
G37*
%TD.AperFunction*%
%TD*%
M02*
