%TF.GenerationSoftware,KiCad,Pcbnew,8.0.7*%
%TF.CreationDate,2024-12-20T22:58:06+01:00*%
%TF.ProjectId,ticker,7469636b-6572-42e6-9b69-6361645f7063,rev?*%
%TF.SameCoordinates,Original*%
%TF.FileFunction,Copper,L1,Top*%
%TF.FilePolarity,Positive*%
%FSLAX46Y46*%
G04 Gerber Fmt 4.6, Leading zero omitted, Abs format (unit mm)*
G04 Created by KiCad (PCBNEW 8.0.7) date 2024-12-20 22:58:06*
%MOMM*%
%LPD*%
G01*
G04 APERTURE LIST*
G04 Aperture macros list*
%AMRotRect*
0 Rectangle, with rotation*
0 The origin of the aperture is its center*
0 $1 length*
0 $2 width*
0 $3 Rotation angle, in degrees counterclockwise*
0 Add horizontal line*
21,1,$1,$2,0,0,$3*%
G04 Aperture macros list end*
%TA.AperFunction,ComponentPad*%
%ADD10C,1.600000*%
%TD*%
%TA.AperFunction,ComponentPad*%
%ADD11O,1.600000X1.600000*%
%TD*%
%TA.AperFunction,ComponentPad*%
%ADD12C,0.900000*%
%TD*%
%TA.AperFunction,ComponentPad*%
%ADD13C,8.600000*%
%TD*%
%TA.AperFunction,ComponentPad*%
%ADD14R,1.500000X1.500000*%
%TD*%
%TA.AperFunction,ComponentPad*%
%ADD15C,1.500000*%
%TD*%
%TA.AperFunction,ComponentPad*%
%ADD16R,1.800000X1.800000*%
%TD*%
%TA.AperFunction,ComponentPad*%
%ADD17C,1.800000*%
%TD*%
%TA.AperFunction,ComponentPad*%
%ADD18C,1.400000*%
%TD*%
%TA.AperFunction,ComponentPad*%
%ADD19RotRect,3.500000X3.500000X225.000000*%
%TD*%
%TA.AperFunction,ComponentPad*%
%ADD20C,3.500000*%
%TD*%
%TA.AperFunction,ComponentPad*%
%ADD21RotRect,3.500000X3.500000X315.000000*%
%TD*%
%TA.AperFunction,ComponentPad*%
%ADD22R,1.600000X1.600000*%
%TD*%
%TA.AperFunction,ComponentPad*%
%ADD23R,3.500000X3.500000*%
%TD*%
%TA.AperFunction,Conductor*%
%ADD24C,0.750000*%
%TD*%
%TA.AperFunction,Conductor*%
%ADD25C,0.500000*%
%TD*%
G04 APERTURE END LIST*
D10*
%TO.P,R3,1*%
%TO.N,Net-(D1-Pad1)*%
X9690000Y0D03*
D11*
%TO.P,R3,2*%
%TO.N,GND*%
X17310000Y0D03*
%TD*%
D12*
%TO.P,REF\u002A\u002A,1*%
%TO.N,N/C*%
X-20555102Y14172353D03*
X-20020862Y16582152D03*
X-19228880Y12090603D03*
X-17939112Y17908373D03*
D13*
X-17379097Y14732368D03*
D12*
X-16819081Y11556363D03*
X-15529313Y17374133D03*
X-14737332Y12882585D03*
X-14203092Y15292384D03*
X-6176908Y16707616D03*
X-5642668Y19117415D03*
X-4850687Y14625867D03*
X-3560919Y20443637D03*
D13*
X-3000903Y17267632D03*
D12*
X-2440888Y14091627D03*
X-1151120Y19909397D03*
X-359138Y15417848D03*
X175102Y17827647D03*
%TD*%
D14*
%TO.P,Q1,1,C*%
%TO.N,Net-(Q1-Pad1)*%
X4850000Y-10500000D03*
D15*
%TO.P,Q1,2,B*%
%TO.N,Net-(C1-Pad1)*%
X2310000Y-10500000D03*
%TO.P,Q1,3,E*%
%TO.N,GND*%
X-230000Y-10500000D03*
%TD*%
D16*
%TO.P,D2,1,K*%
%TO.N,Net-(D1-Pad1)*%
X6810000Y1000000D03*
D17*
%TO.P,D2,2,A*%
%TO.N,OUT2*%
X6810000Y3540000D03*
%TD*%
D10*
%TO.P,R1,1*%
%TO.N,VCC*%
X-6690000Y1000000D03*
D11*
%TO.P,R1,2*%
%TO.N,Net-(C1-Pad1)*%
X-6690000Y8620000D03*
%TD*%
D18*
%TO.P,OUT_1,*%
%TO.N,*%
X16966854Y-5414214D03*
X9188680Y-13192388D03*
D19*
%TO.P,OUT_1,1,Pin_1*%
%TO.N,GND*%
X11310000Y-4000000D03*
D20*
%TO.P,OUT_1,2,Pin_2*%
%TO.N,OUT1*%
X7774466Y-7535534D03*
%TD*%
D16*
%TO.P,D1,1,K*%
%TO.N,Net-(D1-Pad1)*%
X6810000Y-1225000D03*
D17*
%TO.P,D1,2,A*%
%TO.N,OUT1*%
X6810000Y-3765000D03*
%TD*%
D18*
%TO.P,OUT_2,*%
%TO.N,*%
X9396165Y13364338D03*
X17174339Y5586164D03*
D21*
%TO.P,OUT_2,1,Pin_1*%
%TO.N,GND*%
X7981951Y7707484D03*
D20*
%TO.P,OUT_2,2,Pin_2*%
%TO.N,OUT2*%
X11517485Y4171950D03*
%TD*%
D14*
%TO.P,Q2,1,C*%
%TO.N,Net-(K1-Pad8)*%
X-2650000Y-10500000D03*
D15*
%TO.P,Q2,2,B*%
%TO.N,Net-(Q1-Pad1)*%
X-5190000Y-10500000D03*
%TO.P,Q2,3,E*%
%TO.N,GND*%
X-7730000Y-10500000D03*
%TD*%
D12*
%TO.P,REF\u002A\u002A,1*%
%TO.N,N/C*%
X-20555102Y-14172353D03*
X-19228880Y-12090603D03*
X-20020862Y-16582152D03*
X-16819081Y-11556363D03*
D13*
X-17379097Y-14732368D03*
D12*
X-17939112Y-17908373D03*
X-14737332Y-12882585D03*
X-15529313Y-17374133D03*
X-14203092Y-15292384D03*
X-6176908Y-16707616D03*
X-4850687Y-14625867D03*
X-5642668Y-19117415D03*
X-2440888Y-14091627D03*
D13*
X-3000903Y-17267632D03*
D12*
X-3560919Y-20443637D03*
X-359138Y-15417848D03*
X-1151120Y-19909397D03*
X175102Y-17827647D03*
%TD*%
D22*
%TO.P,C1,1*%
%TO.N,Net-(C1-Pad1)*%
X810000Y10250000D03*
D10*
%TO.P,C1,2*%
%TO.N,GND*%
X3310000Y10250000D03*
%TD*%
D14*
%TO.P,K1,1,COIL+_1*%
%TO.N,VCC*%
X3810000Y-5080000D03*
D15*
%TO.P,K1,2,NC_1*%
%TO.N,OUT1*%
X3810000Y-2540000D03*
%TO.P,K1,3,COM_1*%
%TO.N,VCC*%
X3810000Y0D03*
%TO.P,K1,4,NO_1*%
%TO.N,OUT2*%
X3810000Y2540000D03*
%TO.P,K1,5,COIL-_1*%
%TO.N,Net-(K1-Pad5)*%
X3810000Y5080000D03*
%TO.P,K1,6,COIL-_2*%
%TO.N,Net-(K1-Pad6)*%
X-3810000Y5080000D03*
%TO.P,K1,7,NO_2*%
X-3810000Y2540000D03*
%TO.P,K1,8,COM_2*%
%TO.N,Net-(K1-Pad8)*%
X-3810000Y0D03*
%TO.P,K1,9,NC_2*%
%TO.N,Net-(K1-Pad5)*%
X-3810000Y-2540000D03*
%TO.P,K1,10,COIL+_2*%
%TO.N,VCC*%
X-3810000Y-5080000D03*
%TD*%
D10*
%TO.P,R2,1*%
%TO.N,VCC*%
X-6690000Y-500000D03*
D11*
%TO.P,R2,2*%
%TO.N,Net-(Q1-Pad1)*%
X-6690000Y-8120000D03*
%TD*%
D18*
%TO.P,IN1,*%
%TO.N,*%
X-20515000Y-5500000D03*
X-20515000Y5500000D03*
D23*
%TO.P,IN1,1,Pin_1*%
%TO.N,GND*%
X-10515000Y2500000D03*
D20*
%TO.P,IN1,2,Pin_2*%
%TO.N,VCC*%
X-10515000Y-2500000D03*
%TD*%
D24*
%TO.N,Net-(C1-Pad1)*%
X810000Y10250000D02*
X810000Y-6500000D01*
X-6690000Y8620000D02*
X-6070000Y8000000D01*
X-6070000Y8000000D02*
X810000Y8000000D01*
X810000Y8000000D02*
X810000Y10250000D01*
X810000Y-6500000D02*
X2310000Y-8000000D01*
X2310000Y-8000000D02*
X2310000Y-10500000D01*
%TO.N,Net-(Q1-Pad1)*%
X-5190000Y-10500000D02*
X-5190000Y-9620000D01*
X-3690000Y-12000000D02*
X-5190000Y-10500000D01*
X4850000Y-10500000D02*
X4850000Y-10960000D01*
X-5190000Y-9620000D02*
X-6690000Y-8120000D01*
X3810000Y-12000000D02*
X-3690000Y-12000000D01*
X4850000Y-10960000D02*
X3810000Y-12000000D01*
%TO.N,Net-(K1-Pad8)*%
X-1690000Y-2120000D02*
X-3810000Y0D01*
X-1690000Y-7000000D02*
X-1690000Y-2120000D01*
X-2650000Y-7960000D02*
X-1690000Y-7000000D01*
X-2650000Y-10500000D02*
X-2650000Y-7960000D01*
%TO.N,Net-(K1-Pad6)*%
X-3810000Y5080000D02*
X-3810000Y2540000D01*
%TO.N,OUT1*%
X3810000Y-2540000D02*
X4955000Y-2540000D01*
X6862500Y-4447500D02*
X7774466Y-5359466D01*
D25*
X6810000Y-3765000D02*
X6545000Y-3765000D01*
D24*
X7774466Y-5359466D02*
X7774466Y-7535534D01*
D25*
X6362500Y-3947500D02*
X6862500Y-4447500D01*
X6545000Y-3765000D02*
X6362500Y-3947500D01*
D24*
X4955000Y-2540000D02*
X6362500Y-3947500D01*
%TO.N,OUT2*%
X9885535Y2540000D02*
X7810000Y2540000D01*
X9885535Y2540000D02*
X11517485Y4171950D01*
X6810000Y3540000D02*
X4810000Y3540000D01*
X4810000Y3540000D02*
X3810000Y2540000D01*
X7810000Y2540000D02*
X6810000Y3540000D01*
D25*
%TO.N,Net-(D1-Pad1)*%
X6810000Y-1225000D02*
X6810000Y1000000D01*
X6810000Y1000000D02*
X8690000Y1000000D01*
X8690000Y1000000D02*
X9690000Y0D01*
%TD*%
%TA.AperFunction,Conductor*%
%TO.N,VCC*%
G36*
X5721730Y2636498D02*
G01*
X5746309Y2615839D01*
X5779841Y2579414D01*
X5811263Y2515751D01*
X5803277Y2445205D01*
X5758419Y2390175D01*
X5731175Y2376021D01*
X5663795Y2350889D01*
X5663792Y2350888D01*
X5546738Y2263262D01*
X5459112Y2146208D01*
X5459110Y2146203D01*
X5408011Y2009205D01*
X5408009Y2009197D01*
X5401500Y1948650D01*
X5401500Y51351D01*
X5408009Y-9195D01*
X5408011Y-9202D01*
X5430116Y-68469D01*
X5435180Y-139285D01*
X5430116Y-156531D01*
X5408011Y-215797D01*
X5408009Y-215804D01*
X5401500Y-276350D01*
X5401500Y-1580079D01*
X5381498Y-1648200D01*
X5327842Y-1694693D01*
X5257568Y-1704797D01*
X5227285Y-1696489D01*
X5212717Y-1690455D01*
X5212708Y-1690452D01*
X5042020Y-1656500D01*
X5042017Y-1656500D01*
X4758477Y-1656500D01*
X4690356Y-1636498D01*
X4669386Y-1619599D01*
X4622038Y-1572251D01*
X4590260Y-1550000D01*
X4572903Y-1537846D01*
X4441654Y-1445944D01*
X4308640Y-1383919D01*
X4255355Y-1337002D01*
X4235894Y-1268725D01*
X4256436Y-1200765D01*
X4308640Y-1155529D01*
X4441399Y-1093622D01*
X4501987Y-1051197D01*
X4501987Y-1051196D01*
X3934948Y-484157D01*
X4002993Y-465925D01*
X4117007Y-400099D01*
X4210099Y-307007D01*
X4275925Y-192993D01*
X4294157Y-124948D01*
X4861196Y-691987D01*
X4861197Y-691987D01*
X4903622Y-631399D01*
X4996647Y-431907D01*
X4996649Y-431903D01*
X5053619Y-219287D01*
X5072804Y0D01*
X5053619Y219288D01*
X4996649Y431904D01*
X4996647Y431908D01*
X4903619Y631406D01*
X4861199Y691989D01*
X4861197Y691989D01*
X4294157Y124949D01*
X4275925Y192993D01*
X4210099Y307007D01*
X4117007Y400099D01*
X4002993Y465925D01*
X3934947Y484159D01*
X4501987Y1051200D01*
X4441403Y1093621D01*
X4308640Y1155530D01*
X4255355Y1202448D01*
X4235894Y1270725D01*
X4256436Y1338685D01*
X4308639Y1383919D01*
X4441654Y1445944D01*
X4622038Y1572251D01*
X4777749Y1727962D01*
X4904056Y1908346D01*
X4997120Y2107924D01*
X5054115Y2320629D01*
X5070638Y2509497D01*
X5096500Y2575611D01*
X5107055Y2587599D01*
X5139055Y2619598D01*
X5201369Y2653621D01*
X5228148Y2656500D01*
X5653609Y2656500D01*
X5721730Y2636498D01*
G37*
%TD.AperFunction*%
%TA.AperFunction,Conductor*%
G36*
X11319303Y13981273D02*
G01*
X11355392Y13957738D01*
X17719352Y8032672D01*
X18484362Y7320421D01*
X18504926Y7295656D01*
X18554747Y7217053D01*
X18836042Y6773251D01*
X18839658Y6767177D01*
X19190210Y6138533D01*
X19193485Y6132250D01*
X19368411Y5772377D01*
X19494937Y5512074D01*
X19508135Y5484923D01*
X19511051Y5478468D01*
X19780531Y4834287D01*
X19788823Y4814467D01*
X19791369Y4807864D01*
X19872029Y4579819D01*
X20031378Y4129301D01*
X20033552Y4122557D01*
X20235036Y3431592D01*
X20236828Y3424737D01*
X20399161Y2723515D01*
X20400564Y2716571D01*
X20523223Y2007352D01*
X20524234Y2000339D01*
X20600834Y1337278D01*
X20606837Y1285320D01*
X20607451Y1278261D01*
X20649729Y559779D01*
X20649947Y552698D01*
X20651776Y-167082D01*
X20651594Y-174165D01*
X20612963Y-892868D01*
X20612384Y-899929D01*
X20533415Y-1615337D01*
X20532440Y-1622355D01*
X20413383Y-2332195D01*
X20412015Y-2339147D01*
X20253250Y-3041162D01*
X20251494Y-3048026D01*
X20053513Y-3740036D01*
X20051373Y-3746790D01*
X19814815Y-4426555D01*
X19812299Y-4433178D01*
X19537909Y-5098566D01*
X19535025Y-5105038D01*
X19223663Y-5753961D01*
X19220420Y-5760260D01*
X18873069Y-6390669D01*
X18869476Y-6396776D01*
X18803600Y-6501885D01*
X18785931Y-6524067D01*
X11356682Y-13953317D01*
X11294370Y-13987343D01*
X11245047Y-13988190D01*
X10397199Y-13834035D01*
X10333755Y-13802169D01*
X10297611Y-13741062D01*
X10300241Y-13670114D01*
X10305545Y-13656816D01*
X10328636Y-13607298D01*
X10383366Y-13403043D01*
X10401796Y-13192388D01*
X10383366Y-12981733D01*
X10328636Y-12777478D01*
X10239269Y-12585830D01*
X10239268Y-12585829D01*
X10239267Y-12585826D01*
X10117987Y-12412620D01*
X10117984Y-12412616D01*
X10117981Y-12412612D01*
X9968456Y-12263087D01*
X9968452Y-12263084D01*
X9968447Y-12263080D01*
X9795241Y-12141800D01*
X9603592Y-12052433D01*
X9603588Y-12052431D01*
X9508793Y-12027031D01*
X9399335Y-11997702D01*
X9188680Y-11979272D01*
X8978025Y-11997702D01*
X8923296Y-12012366D01*
X8773771Y-12052431D01*
X8773767Y-12052433D01*
X8582118Y-12141800D01*
X8408912Y-12263080D01*
X8408901Y-12263089D01*
X8259381Y-12412609D01*
X8259372Y-12412620D01*
X8138092Y-12585826D01*
X8048725Y-12777475D01*
X8048723Y-12777479D01*
X7993994Y-12981734D01*
X7975564Y-13192388D01*
X7979074Y-13232507D01*
X7965084Y-13302112D01*
X7915684Y-13353104D01*
X7846558Y-13369294D01*
X7831013Y-13367456D01*
X4565373Y-12773703D01*
X4501930Y-12741837D01*
X4465785Y-12680730D01*
X4468415Y-12609782D01*
X4498818Y-12560640D01*
X5264053Y-11795405D01*
X5326365Y-11761379D01*
X5353148Y-11758500D01*
X5648632Y-11758500D01*
X5648638Y-11758500D01*
X5648645Y-11758499D01*
X5648649Y-11758499D01*
X5709196Y-11751990D01*
X5709199Y-11751989D01*
X5709201Y-11751989D01*
X5846204Y-11700889D01*
X5963261Y-11613261D01*
X6050889Y-11496204D01*
X6101989Y-11359201D01*
X6107060Y-11312038D01*
X6108499Y-11298649D01*
X6108500Y-11298632D01*
X6108500Y-9701367D01*
X6108499Y-9701350D01*
X6101990Y-9640803D01*
X6101988Y-9640795D01*
X6068690Y-9551523D01*
X6050889Y-9503796D01*
X6050888Y-9503794D01*
X6050887Y-9503792D01*
X5963261Y-9386738D01*
X5846207Y-9299112D01*
X5846202Y-9299110D01*
X5709204Y-9248011D01*
X5709196Y-9248009D01*
X5648649Y-9241500D01*
X5648638Y-9241500D01*
X4051362Y-9241500D01*
X4051350Y-9241500D01*
X3990803Y-9248009D01*
X3990795Y-9248011D01*
X3853797Y-9299110D01*
X3853792Y-9299112D01*
X3736738Y-9386738D01*
X3649112Y-9503792D01*
X3649110Y-9503797D01*
X3598011Y-9640795D01*
X3598009Y-9640803D01*
X3591500Y-9701350D01*
X3591500Y-9736423D01*
X3571498Y-9804544D01*
X3517842Y-9851037D01*
X3447568Y-9861141D01*
X3382988Y-9831647D01*
X3362287Y-9808694D01*
X3277751Y-9687965D01*
X3277746Y-9687959D01*
X3230405Y-9640618D01*
X3196379Y-9578306D01*
X3193500Y-9551523D01*
X3193500Y-7912984D01*
X3193499Y-7912979D01*
X3159548Y-7742293D01*
X3142979Y-7702293D01*
X3129917Y-7670757D01*
X3092948Y-7581506D01*
X3013932Y-7463251D01*
X2996259Y-7436801D01*
X2996258Y-7436800D01*
X2996255Y-7436796D01*
X1730405Y-6170946D01*
X1696379Y-6108634D01*
X1693500Y-6081851D01*
X1693500Y5080000D01*
X2546693Y5080000D01*
X2565885Y4860629D01*
X2583145Y4796216D01*
X2622879Y4647927D01*
X2622881Y4647921D01*
X2707070Y4467376D01*
X2715944Y4448346D01*
X2816096Y4305315D01*
X2842251Y4267962D01*
X2842254Y4267958D01*
X2997957Y4112255D01*
X2997961Y4112252D01*
X2997962Y4112251D01*
X3178346Y3985944D01*
X3283219Y3937042D01*
X3310768Y3924195D01*
X3364053Y3877278D01*
X3383514Y3809001D01*
X3362972Y3741041D01*
X3310768Y3695805D01*
X3178346Y3634056D01*
X2997965Y3507752D01*
X2997959Y3507747D01*
X2842253Y3352041D01*
X2842248Y3352035D01*
X2715944Y3171654D01*
X2622881Y2972080D01*
X2622880Y2972076D01*
X2565885Y2759371D01*
X2546693Y2540000D01*
X2565885Y2320629D01*
X2573275Y2293049D01*
X2622879Y2107927D01*
X2622881Y2107921D01*
X2715824Y1908604D01*
X2715944Y1908346D01*
X2821881Y1757053D01*
X2842251Y1727962D01*
X2842254Y1727958D01*
X2997957Y1572255D01*
X2997961Y1572252D01*
X2997962Y1572251D01*
X3178346Y1445944D01*
X3178351Y1445942D01*
X3178351Y1445941D01*
X3311358Y1383920D01*
X3364644Y1337003D01*
X3384105Y1268726D01*
X3363564Y1200766D01*
X3311360Y1155531D01*
X3178600Y1093623D01*
X3118010Y1051199D01*
X3685051Y484158D01*
X3617007Y465925D01*
X3502993Y400099D01*
X3409901Y307007D01*
X3344075Y192993D01*
X3325842Y124949D01*
X2758801Y691990D01*
X2716378Y631402D01*
X2623352Y431908D01*
X2623350Y431904D01*
X2566380Y219288D01*
X2547195Y0D01*
X2566380Y-219287D01*
X2623350Y-431903D01*
X2623352Y-431907D01*
X2716379Y-631403D01*
X2758800Y-691987D01*
X3325841Y-124946D01*
X3344075Y-192993D01*
X3409901Y-307007D01*
X3502993Y-400099D01*
X3617007Y-465925D01*
X3685051Y-484157D01*
X3118011Y-1051197D01*
X3118011Y-1051198D01*
X3178597Y-1093621D01*
X3311359Y-1155529D01*
X3364644Y-1202446D01*
X3384105Y-1270724D01*
X3363563Y-1338684D01*
X3311359Y-1383919D01*
X3178346Y-1445944D01*
X2997965Y-1572248D01*
X2997959Y-1572253D01*
X2842253Y-1727959D01*
X2842248Y-1727965D01*
X2715944Y-1908346D01*
X2622881Y-2107920D01*
X2622879Y-2107926D01*
X2565885Y-2320629D01*
X2546693Y-2540000D01*
X2565885Y-2759370D01*
X2622879Y-2972073D01*
X2622881Y-2972079D01*
X2678955Y-3092331D01*
X2715944Y-3171654D01*
X2788983Y-3275964D01*
X2842251Y-3352038D01*
X2842254Y-3352042D01*
X2997957Y-3507745D01*
X2997966Y-3507752D01*
X3119408Y-3592787D01*
X3163737Y-3648244D01*
X3171046Y-3718863D01*
X3139016Y-3782224D01*
X3077814Y-3818209D01*
X3047138Y-3822000D01*
X3011402Y-3822000D01*
X2950906Y-3828505D01*
X2814035Y-3879555D01*
X2814034Y-3879555D01*
X2697095Y-3967095D01*
X2609555Y-4084034D01*
X2609555Y-4084035D01*
X2558505Y-4220906D01*
X2552000Y-4281402D01*
X2552000Y-4826000D01*
X3379297Y-4826000D01*
X3344075Y-4887007D01*
X3310000Y-5014174D01*
X3310000Y-5145826D01*
X3344075Y-5272993D01*
X3379297Y-5334000D01*
X2552000Y-5334000D01*
X2552000Y-5878597D01*
X2558505Y-5939093D01*
X2609555Y-6075964D01*
X2609555Y-6075965D01*
X2697095Y-6192904D01*
X2814034Y-6280444D01*
X2950906Y-6331494D01*
X3011402Y-6337999D01*
X3011415Y-6338000D01*
X3556000Y-6338000D01*
X3556000Y-5510702D01*
X3617007Y-5545925D01*
X3744174Y-5580000D01*
X3875826Y-5580000D01*
X4002993Y-5545925D01*
X4064000Y-5510702D01*
X4064000Y-6338000D01*
X4608585Y-6338000D01*
X4608597Y-6337999D01*
X4669093Y-6331494D01*
X4805964Y-6280444D01*
X4805965Y-6280444D01*
X4922904Y-6192904D01*
X5010444Y-6075965D01*
X5010444Y-6075964D01*
X5061494Y-5939093D01*
X5067999Y-5878597D01*
X5068000Y-5878585D01*
X5068000Y-5334000D01*
X4240703Y-5334000D01*
X4275925Y-5272993D01*
X4310000Y-5145826D01*
X4310000Y-5014174D01*
X4275925Y-4887007D01*
X4240703Y-4826000D01*
X5068000Y-4826000D01*
X5068000Y-4281414D01*
X5067999Y-4281402D01*
X5060652Y-4213070D01*
X5063779Y-4212733D01*
X5066766Y-4156413D01*
X5108258Y-4098803D01*
X5174309Y-4072770D01*
X5243950Y-4086580D01*
X5274708Y-4109166D01*
X5521965Y-4356422D01*
X5548258Y-4394905D01*
X5567014Y-4437666D01*
X5567018Y-4437672D01*
X5694685Y-4633083D01*
X5852774Y-4804813D01*
X5852778Y-4804816D01*
X5852780Y-4804818D01*
X6036983Y-4948190D01*
X6188109Y-5029974D01*
X6217234Y-5051692D01*
X6454888Y-5289346D01*
X6593077Y-5427534D01*
X6627102Y-5489847D01*
X6622038Y-5560662D01*
X6579491Y-5617498D01*
X6573984Y-5621395D01*
X6396638Y-5739893D01*
X6396631Y-5739898D01*
X6396628Y-5739901D01*
X6174039Y-5935107D01*
X5978833Y-6157696D01*
X5978830Y-6157699D01*
X5978825Y-6157706D01*
X5814349Y-6403863D01*
X5683410Y-6669382D01*
X5683404Y-6669396D01*
X5588244Y-6949728D01*
X5588242Y-6949735D01*
X5588242Y-6949737D01*
X5581730Y-6982477D01*
X5530484Y-7240098D01*
X5530482Y-7240112D01*
X5511120Y-7535530D01*
X5511120Y-7535537D01*
X5530482Y-7830955D01*
X5530484Y-7830969D01*
X5549355Y-7925837D01*
X5588046Y-8120348D01*
X5588242Y-8121329D01*
X5588244Y-8121339D01*
X5683404Y-8401671D01*
X5683410Y-8401685D01*
X5814349Y-8667204D01*
X5978825Y-8913361D01*
X5978827Y-8913364D01*
X5978833Y-8913372D01*
X6174039Y-9135961D01*
X6396628Y-9331167D01*
X6642793Y-9495649D01*
X6908321Y-9626593D01*
X7188669Y-9721758D01*
X7479040Y-9779517D01*
X7647854Y-9790581D01*
X7774463Y-9798880D01*
X7774466Y-9798880D01*
X7774469Y-9798880D01*
X7885250Y-9791618D01*
X8069892Y-9779517D01*
X8360263Y-9721758D01*
X8640611Y-9626593D01*
X8906139Y-9495649D01*
X9152304Y-9331167D01*
X9374893Y-9135961D01*
X9570099Y-8913372D01*
X9734581Y-8667207D01*
X9865525Y-8401679D01*
X9960690Y-8121331D01*
X10018449Y-7830960D01*
X10037812Y-7535534D01*
X10033074Y-7463251D01*
X10020782Y-7275700D01*
X10018449Y-7240108D01*
X9960690Y-6949737D01*
X9865525Y-6669389D01*
X9734581Y-6403861D01*
X9593624Y-6192904D01*
X9570106Y-6157706D01*
X9570104Y-6157704D01*
X9570099Y-6157696D01*
X9374893Y-5935107D01*
X9152304Y-5739901D01*
X9152296Y-5739895D01*
X9152293Y-5739893D01*
X8906138Y-5575418D01*
X8728237Y-5487686D01*
X8675988Y-5439617D01*
X8657966Y-5374680D01*
X8657966Y-5272450D01*
X8657965Y-5272446D01*
X8627651Y-5120046D01*
X8627650Y-5120042D01*
X8624666Y-5105038D01*
X8624014Y-5101758D01*
X8557414Y-4940971D01*
X8460725Y-4796268D01*
X8128838Y-4464381D01*
X8094815Y-4402071D01*
X8099879Y-4331256D01*
X8102548Y-4324674D01*
X8127450Y-4267904D01*
X8146749Y-4223907D01*
X8146749Y-4223904D01*
X8147153Y-4222985D01*
X8192834Y-4168637D01*
X8260646Y-4147613D01*
X8329060Y-4166589D01*
X8376354Y-4219540D01*
X8377153Y-4221256D01*
X8401358Y-4274257D01*
X8402950Y-4277743D01*
X8441170Y-4325172D01*
X8441175Y-4325177D01*
X8441184Y-4325187D01*
X10984812Y-6868815D01*
X10984821Y-6868823D01*
X10984828Y-6868830D01*
X11032257Y-6907050D01*
X11165266Y-6967793D01*
X11310000Y-6988602D01*
X11454734Y-6967793D01*
X11587743Y-6907050D01*
X11635172Y-6868830D01*
X13089788Y-5414214D01*
X15753738Y-5414214D01*
X15772168Y-5624869D01*
X15795154Y-5710653D01*
X15826897Y-5829122D01*
X15826899Y-5829126D01*
X15916266Y-6020775D01*
X16037546Y-6193981D01*
X16037550Y-6193986D01*
X16037553Y-6193990D01*
X16187078Y-6343515D01*
X16187082Y-6343518D01*
X16187086Y-6343521D01*
X16360292Y-6464801D01*
X16360295Y-6464802D01*
X16360296Y-6464803D01*
X16551944Y-6554170D01*
X16756199Y-6608900D01*
X16966854Y-6627330D01*
X17177509Y-6608900D01*
X17381764Y-6554170D01*
X17573412Y-6464803D01*
X17746630Y-6343515D01*
X17896155Y-6193990D01*
X18017443Y-6020772D01*
X18106810Y-5829124D01*
X18161540Y-5624869D01*
X18179970Y-5414214D01*
X18161540Y-5203559D01*
X18106810Y-4999304D01*
X18017443Y-4807656D01*
X18017442Y-4807655D01*
X18017441Y-4807652D01*
X17896161Y-4634446D01*
X17896158Y-4634442D01*
X17896155Y-4634438D01*
X17746630Y-4484913D01*
X17746626Y-4484910D01*
X17746621Y-4484906D01*
X17573415Y-4363626D01*
X17397084Y-4281402D01*
X17381764Y-4274258D01*
X17381762Y-4274257D01*
X17286967Y-4248857D01*
X17177509Y-4219528D01*
X16966854Y-4201098D01*
X16756199Y-4219528D01*
X16701470Y-4234192D01*
X16551945Y-4274257D01*
X16551941Y-4274259D01*
X16360292Y-4363626D01*
X16187086Y-4484906D01*
X16187075Y-4484915D01*
X16037555Y-4634435D01*
X16037546Y-4634446D01*
X15916266Y-4807652D01*
X15826899Y-4999301D01*
X15826897Y-4999305D01*
X15794545Y-5120046D01*
X15772168Y-5203559D01*
X15753738Y-5414214D01*
X13089788Y-5414214D01*
X14178830Y-4325172D01*
X14217050Y-4277743D01*
X14277793Y-4144734D01*
X14298602Y-4000000D01*
X14277793Y-3855266D01*
X14217050Y-3722257D01*
X14178830Y-3674828D01*
X14178823Y-3674821D01*
X14178815Y-3674812D01*
X11635187Y-1131184D01*
X11635177Y-1131175D01*
X11635172Y-1131170D01*
X11587743Y-1092950D01*
X11454734Y-1032207D01*
X11310000Y-1011398D01*
X11165265Y-1032207D01*
X11032256Y-1092950D01*
X10984831Y-1131167D01*
X10984812Y-1131184D01*
X8441184Y-3674812D01*
X8441168Y-3674829D01*
X8434522Y-3683077D01*
X8376201Y-3723564D01*
X8305249Y-3726093D01*
X8244194Y-3689861D01*
X8212418Y-3626372D01*
X8210850Y-3614432D01*
X8204051Y-3532374D01*
X8197814Y-3507745D01*
X8146750Y-3306096D01*
X8146747Y-3306089D01*
X8052984Y-3092331D01*
X7925316Y-2896920D01*
X7925315Y-2896919D01*
X7925314Y-2896917D01*
X7840156Y-2804411D01*
X7808736Y-2740748D01*
X7816723Y-2670202D01*
X7861581Y-2615173D01*
X7888819Y-2601022D01*
X7956204Y-2575889D01*
X8073261Y-2488261D01*
X8160889Y-2371204D01*
X8211989Y-2234201D01*
X8213205Y-2222895D01*
X8218499Y-2173649D01*
X8218500Y-2173632D01*
X8218500Y-508881D01*
X8238502Y-440760D01*
X8292158Y-394267D01*
X8362432Y-384163D01*
X8427012Y-413657D01*
X8458694Y-455630D01*
X8498184Y-540317D01*
X8552477Y-656749D01*
X8661214Y-812042D01*
X8683802Y-844300D01*
X8845700Y-1006198D01*
X9033251Y-1137523D01*
X9240757Y-1234284D01*
X9461913Y-1293543D01*
X9690000Y-1313498D01*
X9918087Y-1293543D01*
X10139243Y-1234284D01*
X10346749Y-1137523D01*
X10534300Y-1006198D01*
X10696198Y-844300D01*
X10827523Y-656749D01*
X10924284Y-449243D01*
X10983543Y-228087D01*
X11003498Y0D01*
X15996502Y0D01*
X16016457Y-228087D01*
X16037604Y-307007D01*
X16075715Y-449240D01*
X16075717Y-449246D01*
X16172477Y-656749D01*
X16281214Y-812042D01*
X16303802Y-844300D01*
X16465700Y-1006198D01*
X16653251Y-1137523D01*
X16860757Y-1234284D01*
X17081913Y-1293543D01*
X17310000Y-1313498D01*
X17538087Y-1293543D01*
X17759243Y-1234284D01*
X17966749Y-1137523D01*
X18154300Y-1006198D01*
X18316198Y-844300D01*
X18447523Y-656749D01*
X18544284Y-449243D01*
X18603543Y-228087D01*
X18623498Y0D01*
X18603543Y228087D01*
X18544284Y449243D01*
X18447523Y656749D01*
X18316198Y844300D01*
X18154300Y1006198D01*
X18028820Y1094060D01*
X17966749Y1137523D01*
X17759246Y1234283D01*
X17759240Y1234285D01*
X17650928Y1263307D01*
X17538087Y1293543D01*
X17310000Y1313498D01*
X17081913Y1293543D01*
X16860759Y1234285D01*
X16860753Y1234283D01*
X16653250Y1137523D01*
X16465703Y1006201D01*
X16465697Y1006196D01*
X16303804Y844303D01*
X16303799Y844297D01*
X16172477Y656750D01*
X16075717Y449247D01*
X16075715Y449241D01*
X16047382Y343501D01*
X16016457Y228087D01*
X15996502Y0D01*
X11003498Y0D01*
X10983543Y228087D01*
X10924284Y449243D01*
X10827523Y656749D01*
X10696198Y844300D01*
X10534300Y1006198D01*
X10408820Y1094060D01*
X10346749Y1137523D01*
X10139246Y1234283D01*
X10139240Y1234285D01*
X10030928Y1263307D01*
X9918087Y1293543D01*
X9690000Y1313498D01*
X9689998Y1313498D01*
X9527084Y1299246D01*
X9457480Y1313236D01*
X9427009Y1335672D01*
X9321276Y1441405D01*
X9287250Y1503717D01*
X9292315Y1574532D01*
X9334862Y1631368D01*
X9401382Y1656179D01*
X9410371Y1656500D01*
X9972551Y1656500D01*
X9972552Y1656500D01*
X10143243Y1690452D01*
X10304030Y1757052D01*
X10448734Y1853741D01*
X10614261Y2019270D01*
X10676571Y2053293D01*
X10743856Y2049486D01*
X10931688Y1985726D01*
X11222059Y1927967D01*
X11390873Y1916903D01*
X11517482Y1908604D01*
X11517485Y1908604D01*
X11517488Y1908604D01*
X11628269Y1915866D01*
X11812911Y1927967D01*
X12103282Y1985726D01*
X12383630Y2080891D01*
X12649158Y2211835D01*
X12895323Y2376317D01*
X13117912Y2571523D01*
X13313118Y2794112D01*
X13477600Y3040277D01*
X13608544Y3305805D01*
X13703709Y3586153D01*
X13761468Y3876524D01*
X13776918Y4112252D01*
X13780831Y4171947D01*
X13780831Y4171954D01*
X13768503Y4360046D01*
X13761468Y4467376D01*
X13703709Y4757747D01*
X13608544Y5038095D01*
X13477600Y5303623D01*
X13393084Y5430110D01*
X13313125Y5549778D01*
X13313123Y5549780D01*
X13313118Y5549788D01*
X13281217Y5586164D01*
X15961223Y5586164D01*
X15979653Y5375509D01*
X16000054Y5299371D01*
X16034382Y5171256D01*
X16034384Y5171252D01*
X16123751Y4979603D01*
X16245031Y4806397D01*
X16245035Y4806392D01*
X16245038Y4806388D01*
X16394563Y4656863D01*
X16394567Y4656860D01*
X16394571Y4656857D01*
X16567777Y4535577D01*
X16567780Y4535576D01*
X16567781Y4535575D01*
X16759429Y4446208D01*
X16963684Y4391478D01*
X17174339Y4373048D01*
X17384994Y4391478D01*
X17589249Y4446208D01*
X17780897Y4535575D01*
X17954115Y4656863D01*
X18103640Y4806388D01*
X18224928Y4979606D01*
X18314295Y5171254D01*
X18369025Y5375509D01*
X18387455Y5586164D01*
X18369025Y5796819D01*
X18314295Y6001074D01*
X18224928Y6192722D01*
X18224927Y6192723D01*
X18224926Y6192726D01*
X18103646Y6365932D01*
X18103643Y6365936D01*
X18103640Y6365940D01*
X17954115Y6515465D01*
X17954111Y6515468D01*
X17954106Y6515472D01*
X17780900Y6636752D01*
X17589251Y6726119D01*
X17589247Y6726121D01*
X17494452Y6751521D01*
X17384994Y6780850D01*
X17174339Y6799280D01*
X16963684Y6780850D01*
X16912656Y6767177D01*
X16759430Y6726121D01*
X16759426Y6726119D01*
X16567777Y6636752D01*
X16394571Y6515472D01*
X16394560Y6515463D01*
X16245040Y6365943D01*
X16245031Y6365932D01*
X16123751Y6192726D01*
X16034384Y6001077D01*
X16034382Y6001073D01*
X16005167Y5892038D01*
X15979653Y5796819D01*
X15961223Y5586164D01*
X13281217Y5586164D01*
X13117912Y5772377D01*
X12895323Y5967583D01*
X12895315Y5967589D01*
X12895312Y5967591D01*
X12649155Y6132067D01*
X12383636Y6263006D01*
X12383630Y6263009D01*
X12383625Y6263011D01*
X12383622Y6263012D01*
X12103290Y6358172D01*
X12103284Y6358174D01*
X12103282Y6358174D01*
X12006051Y6377515D01*
X11812920Y6415932D01*
X11812906Y6415934D01*
X11517488Y6435296D01*
X11517482Y6435296D01*
X11222063Y6415934D01*
X11222049Y6415932D01*
X10980303Y6367845D01*
X10931688Y6358174D01*
X10931686Y6358174D01*
X10931679Y6358172D01*
X10651347Y6263012D01*
X10651333Y6263006D01*
X10385814Y6132067D01*
X10139657Y5967591D01*
X10139650Y5967586D01*
X10139647Y5967583D01*
X9917058Y5772377D01*
X9721852Y5549788D01*
X9721849Y5549785D01*
X9721844Y5549778D01*
X9557368Y5303621D01*
X9426429Y5038102D01*
X9426423Y5038088D01*
X9331263Y4757756D01*
X9331261Y4757749D01*
X9331261Y4757747D01*
X9327655Y4739619D01*
X9273503Y4467386D01*
X9273501Y4467372D01*
X9254139Y4171954D01*
X9254139Y4171947D01*
X9273501Y3876529D01*
X9273503Y3876515D01*
X9309450Y3695805D01*
X9331261Y3586153D01*
X9331263Y3586146D01*
X9332329Y3582169D01*
X9330176Y3581593D01*
X9333056Y3519655D01*
X9297488Y3458210D01*
X9234347Y3425750D01*
X9210642Y3423500D01*
X8348972Y3423500D01*
X8280851Y3443502D01*
X8234358Y3497158D01*
X8223402Y3539095D01*
X8219503Y3586145D01*
X8204051Y3772626D01*
X8146749Y3998907D01*
X8052984Y4212669D01*
X7925314Y4408083D01*
X7826661Y4515248D01*
X7795241Y4578912D01*
X7803228Y4649458D01*
X7848087Y4704487D01*
X7915575Y4726528D01*
X7937288Y4725304D01*
X7981951Y4718882D01*
X8126685Y4739691D01*
X8259694Y4800434D01*
X8307123Y4838654D01*
X10850781Y7382312D01*
X10889001Y7429741D01*
X10949744Y7562750D01*
X10970553Y7707484D01*
X10949744Y7852218D01*
X10889001Y7985227D01*
X10850781Y8032656D01*
X10850774Y8032663D01*
X10850766Y8032672D01*
X8307138Y10576300D01*
X8307128Y10576309D01*
X8307123Y10576314D01*
X8259694Y10614534D01*
X8126685Y10675277D01*
X7981951Y10696086D01*
X7837216Y10675277D01*
X7704207Y10614534D01*
X7656782Y10576317D01*
X7656763Y10576300D01*
X5113135Y8032672D01*
X5113118Y8032653D01*
X5074901Y7985228D01*
X5064865Y7963251D01*
X5014158Y7852218D01*
X4993349Y7707484D01*
X5014158Y7562750D01*
X5074901Y7429741D01*
X5113121Y7382312D01*
X5113126Y7382307D01*
X5113135Y7382297D01*
X7424199Y5071233D01*
X7458225Y5008921D01*
X7453160Y4938106D01*
X7410613Y4881270D01*
X7344093Y4856459D01*
X7294192Y4862965D01*
X7156955Y4910079D01*
X7156948Y4910081D01*
X7058411Y4926524D01*
X6926712Y4948500D01*
X6693288Y4948500D01*
X6578066Y4929273D01*
X6463051Y4910081D01*
X6463044Y4910079D01*
X6242276Y4834289D01*
X6242273Y4834287D01*
X6040888Y4725303D01*
X6036985Y4723191D01*
X6036975Y4723185D01*
X5852786Y4579824D01*
X5852780Y4579819D01*
X5746310Y4464162D01*
X5685456Y4427591D01*
X5653609Y4423500D01*
X5090250Y4423500D01*
X5022129Y4443502D01*
X4975636Y4497158D01*
X4965532Y4567432D01*
X4976055Y4602750D01*
X4997120Y4647924D01*
X5054115Y4860629D01*
X5073307Y5080000D01*
X5054115Y5299371D01*
X4997120Y5512076D01*
X4904056Y5711653D01*
X4777749Y5892038D01*
X4622038Y6047749D01*
X4441654Y6174056D01*
X4441650Y6174058D01*
X4242079Y6267119D01*
X4242073Y6267121D01*
X4152178Y6291209D01*
X4029371Y6324115D01*
X3810000Y6343307D01*
X3590629Y6324115D01*
X3377926Y6267121D01*
X3377920Y6267119D01*
X3178346Y6174056D01*
X2997965Y6047752D01*
X2997959Y6047747D01*
X2842253Y5892041D01*
X2842248Y5892035D01*
X2715944Y5711654D01*
X2622881Y5512080D01*
X2622879Y5512074D01*
X2586287Y5375511D01*
X2565885Y5299371D01*
X2546693Y5080000D01*
X1693500Y5080000D01*
X1693500Y8850943D01*
X1713502Y8919064D01*
X1767158Y8965557D01*
X1775436Y8968987D01*
X1856204Y8999111D01*
X1878389Y9015718D01*
X1973261Y9086739D01*
X2060886Y9203792D01*
X2060885Y9203792D01*
X2060889Y9203796D01*
X2111989Y9340799D01*
X2111990Y9340804D01*
X2113211Y9344078D01*
X2155758Y9400913D01*
X2222279Y9425724D01*
X2291653Y9410632D01*
X2320362Y9389140D01*
X2465700Y9243802D01*
X2653251Y9112477D01*
X2860757Y9015716D01*
X3081913Y8956457D01*
X3310000Y8936502D01*
X3538087Y8956457D01*
X3759243Y9015716D01*
X3966749Y9112477D01*
X4154300Y9243802D01*
X4316198Y9405700D01*
X4447523Y9593251D01*
X4544284Y9800757D01*
X4603543Y10021913D01*
X4623498Y10250000D01*
X4603543Y10478087D01*
X4544284Y10699243D01*
X4447523Y10906749D01*
X4316198Y11094300D01*
X4154300Y11256198D01*
X3966749Y11387523D01*
X3759246Y11484283D01*
X3759240Y11484285D01*
X3665771Y11509330D01*
X3538087Y11543543D01*
X3310000Y11563498D01*
X3081913Y11543543D01*
X2860759Y11484285D01*
X2860753Y11484283D01*
X2653250Y11387523D01*
X2465703Y11256201D01*
X2320362Y11110860D01*
X2258050Y11076835D01*
X2187234Y11081900D01*
X2130399Y11124447D01*
X2113212Y11155923D01*
X2060889Y11296204D01*
X2060887Y11296208D01*
X1973261Y11413262D01*
X1856207Y11500888D01*
X1856202Y11500890D01*
X1719204Y11551989D01*
X1719196Y11551991D01*
X1658649Y11558500D01*
X1658638Y11558500D01*
X-38638Y11558500D01*
X-38650Y11558500D01*
X-99197Y11551991D01*
X-99205Y11551989D01*
X-236203Y11500890D01*
X-236208Y11500888D01*
X-353262Y11413262D01*
X-440888Y11296208D01*
X-440890Y11296203D01*
X-491989Y11159205D01*
X-491991Y11159197D01*
X-498500Y11098650D01*
X-498500Y9401351D01*
X-491991Y9340804D01*
X-491989Y9340796D01*
X-440890Y9203798D01*
X-440888Y9203793D01*
X-351966Y9085009D01*
X-327155Y9018489D01*
X-342246Y8949115D01*
X-392448Y8898913D01*
X-452834Y8883500D01*
X-5309263Y8883500D01*
X-5377384Y8903502D01*
X-5423877Y8957158D01*
X-5430970Y8976889D01*
X-5436925Y8999113D01*
X-5455716Y9069243D01*
X-5552477Y9276749D01*
X-5683802Y9464300D01*
X-5845700Y9626198D01*
X-6033251Y9757523D01*
X-6240754Y9854283D01*
X-6240760Y9854285D01*
X-6334229Y9879330D01*
X-6461913Y9913543D01*
X-6690000Y9933498D01*
X-6918087Y9913543D01*
X-7139241Y9854285D01*
X-7139247Y9854283D01*
X-7346750Y9757523D01*
X-7534297Y9626201D01*
X-7534303Y9626196D01*
X-7696196Y9464303D01*
X-7696201Y9464297D01*
X-7827523Y9276750D01*
X-7924283Y9069247D01*
X-7924285Y9069241D01*
X-7983543Y8848087D01*
X-8003498Y8620000D01*
X-7983543Y8391914D01*
X-7924285Y8170760D01*
X-7924283Y8170754D01*
X-7837771Y7985228D01*
X-7827523Y7963251D01*
X-7696198Y7775700D01*
X-7534300Y7613802D01*
X-7346749Y7482477D01*
X-7139243Y7385716D01*
X-6918087Y7326457D01*
X-6690000Y7306502D01*
X-6674341Y7307873D01*
X-6604739Y7293888D01*
X-6593371Y7287130D01*
X-6536510Y7249136D01*
X-6488494Y7217052D01*
X-6327707Y7150452D01*
X-6157017Y7116500D01*
X-199500Y7116500D01*
X-131379Y7096498D01*
X-84886Y7042842D01*
X-73500Y6990500D01*
X-73500Y-6587020D01*
X-57114Y-6669396D01*
X-39548Y-6757708D01*
X27052Y-6918495D01*
X91657Y-7015183D01*
X123740Y-7063198D01*
X123745Y-7063204D01*
X1389595Y-8329053D01*
X1423620Y-8391365D01*
X1426500Y-8418148D01*
X1426500Y-9551523D01*
X1406498Y-9619644D01*
X1389595Y-9640618D01*
X1342253Y-9687959D01*
X1342248Y-9687965D01*
X1215944Y-9868346D01*
X1154195Y-10000768D01*
X1107278Y-10054053D01*
X1039000Y-10073514D01*
X971040Y-10052972D01*
X925805Y-10000768D01*
X889946Y-9923868D01*
X864056Y-9868347D01*
X737749Y-9687962D01*
X582038Y-9532251D01*
X401654Y-9405944D01*
X401650Y-9405942D01*
X202079Y-9312881D01*
X202073Y-9312879D01*
X95061Y-9284205D01*
X-10629Y-9255885D01*
X-230000Y-9236693D01*
X-449371Y-9255885D01*
X-662074Y-9312879D01*
X-662080Y-9312881D01*
X-861654Y-9405944D01*
X-1042035Y-9532248D01*
X-1192162Y-9682375D01*
X-1254474Y-9716400D01*
X-1325290Y-9711335D01*
X-1382125Y-9668788D01*
X-1399309Y-9637320D01*
X-1449111Y-9503796D01*
X-1449114Y-9503792D01*
X-1449114Y-9503791D01*
X-1536739Y-9386738D01*
X-1653793Y-9299112D01*
X-1653796Y-9299111D01*
X-1684534Y-9287646D01*
X-1741369Y-9245099D01*
X-1766179Y-9178578D01*
X-1766500Y-9169591D01*
X-1766500Y-8378148D01*
X-1746498Y-8310027D01*
X-1729600Y-8289057D01*
X-1003741Y-7563199D01*
X-907052Y-7418495D01*
X-840452Y-7257708D01*
X-806500Y-7087017D01*
X-806500Y-6912983D01*
X-806500Y-2032983D01*
X-806501Y-2032977D01*
X-840451Y-1862297D01*
X-840451Y-1862296D01*
X-851339Y-1836009D01*
X-851339Y-1836008D01*
X-907052Y-1701505D01*
X-1003741Y-1556802D01*
X-1003742Y-1556801D01*
X-1003744Y-1556798D01*
X-1003746Y-1556796D01*
X-2512937Y-47606D01*
X-2546962Y14706D01*
X-2549361Y30494D01*
X-2565885Y219371D01*
X-2622880Y432076D01*
X-2715944Y631653D01*
X-2842251Y812038D01*
X-2997962Y967749D01*
X-3178346Y1094056D01*
X-3178352Y1094059D01*
X-3178352Y1094060D01*
X-3310768Y1155805D01*
X-3364054Y1202722D01*
X-3383515Y1270999D01*
X-3362974Y1338959D01*
X-3310768Y1384195D01*
X-3178352Y1445941D01*
X-3178352Y1445942D01*
X-3178346Y1445944D01*
X-2997962Y1572251D01*
X-2842251Y1727962D01*
X-2715944Y1908346D01*
X-2622880Y2107924D01*
X-2565885Y2320629D01*
X-2546693Y2540000D01*
X-2565885Y2759371D01*
X-2622880Y2972076D01*
X-2715944Y3171653D01*
X-2842251Y3352038D01*
X-2889595Y3399382D01*
X-2923621Y3461694D01*
X-2926500Y3488477D01*
X-2926500Y4131523D01*
X-2906498Y4199644D01*
X-2889600Y4220614D01*
X-2842251Y4267962D01*
X-2715944Y4448346D01*
X-2622880Y4647924D01*
X-2565885Y4860629D01*
X-2546693Y5080000D01*
X-2565885Y5299371D01*
X-2622880Y5512076D01*
X-2715944Y5711653D01*
X-2842251Y5892038D01*
X-2997962Y6047749D01*
X-3178346Y6174056D01*
X-3178350Y6174058D01*
X-3377921Y6267119D01*
X-3377927Y6267121D01*
X-3467822Y6291209D01*
X-3590629Y6324115D01*
X-3810000Y6343307D01*
X-4029371Y6324115D01*
X-4242074Y6267121D01*
X-4242080Y6267119D01*
X-4441654Y6174056D01*
X-4622035Y6047752D01*
X-4622041Y6047747D01*
X-4777747Y5892041D01*
X-4777752Y5892035D01*
X-4904056Y5711654D01*
X-4997119Y5512080D01*
X-4997121Y5512074D01*
X-5033713Y5375511D01*
X-5054115Y5299371D01*
X-5073307Y5080000D01*
X-5054115Y4860629D01*
X-5036855Y4796216D01*
X-4997121Y4647927D01*
X-4997119Y4647921D01*
X-4912930Y4467376D01*
X-4904056Y4448346D01*
X-4841633Y4359197D01*
X-4790999Y4286884D01*
X-4777749Y4267962D01*
X-4730404Y4220617D01*
X-4696380Y4158307D01*
X-4693500Y4131523D01*
X-4693500Y3488477D01*
X-4713502Y3420356D01*
X-4730405Y3399382D01*
X-4777747Y3352041D01*
X-4777752Y3352035D01*
X-4904056Y3171654D01*
X-4997119Y2972080D01*
X-4997120Y2972076D01*
X-5054115Y2759371D01*
X-5073307Y2540000D01*
X-5054115Y2320629D01*
X-5046725Y2293049D01*
X-4997121Y2107927D01*
X-4997119Y2107921D01*
X-4904176Y1908604D01*
X-4904056Y1908346D01*
X-4798119Y1757053D01*
X-4777749Y1727962D01*
X-4777746Y1727958D01*
X-4622043Y1572255D01*
X-4622039Y1572252D01*
X-4622038Y1572251D01*
X-4441654Y1445944D01*
X-4343126Y1400000D01*
X-4309232Y1384195D01*
X-4255947Y1337278D01*
X-4236486Y1269001D01*
X-4257028Y1201041D01*
X-4309232Y1155805D01*
X-4441654Y1094056D01*
X-4622035Y967752D01*
X-4622041Y967747D01*
X-4777747Y812041D01*
X-4777752Y812035D01*
X-4904056Y631654D01*
X-4997119Y432080D01*
X-4997121Y432074D01*
X-5051780Y228087D01*
X-5054115Y219371D01*
X-5073307Y0D01*
X-5054115Y-219371D01*
X-5044162Y-256515D01*
X-4997121Y-432073D01*
X-4997119Y-432079D01*
X-4981336Y-465925D01*
X-4904056Y-631654D01*
X-4824265Y-745606D01*
X-4777749Y-812038D01*
X-4777746Y-812042D01*
X-4622043Y-967745D01*
X-4622039Y-967748D01*
X-4622038Y-967749D01*
X-4441654Y-1094056D01*
X-4362062Y-1131170D01*
X-4309232Y-1155805D01*
X-4255947Y-1202722D01*
X-4236486Y-1270999D01*
X-4257028Y-1338959D01*
X-4309232Y-1384195D01*
X-4441654Y-1445944D01*
X-4622035Y-1572248D01*
X-4622041Y-1572253D01*
X-4777747Y-1727959D01*
X-4777752Y-1727965D01*
X-4904056Y-1908346D01*
X-4997119Y-2107920D01*
X-4997121Y-2107926D01*
X-5054115Y-2320629D01*
X-5073307Y-2540000D01*
X-5054115Y-2759370D01*
X-4997121Y-2972073D01*
X-4997119Y-2972079D01*
X-4941045Y-3092331D01*
X-4904056Y-3171654D01*
X-4831017Y-3275964D01*
X-4777749Y-3352038D01*
X-4777746Y-3352042D01*
X-4622043Y-3507745D01*
X-4622039Y-3507748D01*
X-4622038Y-3507749D01*
X-4441654Y-3634056D01*
X-4441649Y-3634058D01*
X-4441649Y-3634059D01*
X-4308642Y-3696080D01*
X-4255356Y-3742997D01*
X-4235895Y-3811274D01*
X-4256436Y-3879234D01*
X-4308640Y-3924469D01*
X-4441400Y-3986377D01*
X-4501990Y-4028801D01*
X-3934949Y-4595842D01*
X-4002993Y-4614075D01*
X-4117007Y-4679901D01*
X-4210099Y-4772993D01*
X-4275925Y-4887007D01*
X-4294158Y-4955051D01*
X-4861199Y-4388010D01*
X-4903622Y-4448598D01*
X-4996648Y-4648092D01*
X-4996650Y-4648096D01*
X-5053620Y-4860712D01*
X-5072805Y-5080000D01*
X-5053620Y-5299287D01*
X-4996650Y-5511903D01*
X-4996648Y-5511907D01*
X-4903621Y-5711403D01*
X-4861200Y-5771987D01*
X-4294159Y-5204946D01*
X-4275925Y-5272993D01*
X-4210099Y-5387007D01*
X-4117007Y-5480099D01*
X-4002993Y-5545925D01*
X-3934949Y-5564157D01*
X-4501989Y-6131197D01*
X-4501989Y-6131198D01*
X-4441403Y-6173621D01*
X-4241908Y-6266647D01*
X-4241904Y-6266649D01*
X-4029288Y-6323619D01*
X-3810000Y-6342804D01*
X-3590713Y-6323619D01*
X-3378097Y-6266649D01*
X-3378093Y-6266647D01*
X-3178601Y-6173622D01*
X-3118013Y-6131197D01*
X-3118013Y-6131196D01*
X-3685052Y-5564157D01*
X-3617007Y-5545925D01*
X-3502993Y-5480099D01*
X-3409901Y-5387007D01*
X-3344075Y-5272993D01*
X-3325843Y-5204948D01*
X-2758804Y-5771987D01*
X-2710481Y-5767760D01*
X-2640876Y-5781749D01*
X-2589884Y-5831149D01*
X-2573500Y-5893281D01*
X-2573500Y-6581851D01*
X-2593502Y-6649972D01*
X-2610405Y-6670946D01*
X-3336255Y-7396795D01*
X-3336260Y-7396801D01*
X-3432948Y-7541505D01*
X-3486486Y-7670758D01*
X-3499548Y-7702292D01*
X-3499549Y-7702297D01*
X-3525141Y-7830959D01*
X-3525141Y-7830961D01*
X-3533500Y-7872982D01*
X-3533500Y-9169591D01*
X-3553502Y-9237712D01*
X-3607158Y-9284205D01*
X-3615466Y-9287646D01*
X-3646205Y-9299111D01*
X-3646208Y-9299112D01*
X-3763262Y-9386738D01*
X-3850888Y-9503792D01*
X-3850890Y-9503797D01*
X-3901989Y-9640795D01*
X-3901991Y-9640803D01*
X-3908500Y-9701350D01*
X-3908500Y-9736423D01*
X-3928502Y-9804544D01*
X-3982158Y-9851037D01*
X-4052432Y-9861141D01*
X-4117012Y-9831647D01*
X-4137713Y-9808694D01*
X-4222249Y-9687965D01*
X-4222254Y-9687959D01*
X-4269595Y-9640618D01*
X-4303621Y-9578306D01*
X-4306500Y-9551523D01*
X-4306500Y-9532984D01*
X-4306501Y-9532980D01*
X-4340452Y-9362293D01*
X-4407052Y-9201506D01*
X-4450848Y-9135961D01*
X-4503741Y-9056801D01*
X-5340108Y-8220434D01*
X-5374134Y-8158122D01*
X-5376206Y-8125503D01*
X-5376502Y-8125503D01*
X-5376502Y-8120836D01*
X-5376533Y-8120351D01*
X-5376502Y-8120000D01*
X-5396457Y-7891913D01*
X-5455716Y-7670757D01*
X-5552477Y-7463251D01*
X-5570998Y-7436801D01*
X-5683800Y-7275703D01*
X-5683805Y-7275697D01*
X-5845698Y-7113804D01*
X-5845704Y-7113799D01*
X-6033251Y-6982477D01*
X-6240754Y-6885717D01*
X-6240760Y-6885715D01*
X-6334229Y-6860670D01*
X-6461913Y-6826457D01*
X-6690000Y-6806502D01*
X-6918087Y-6826457D01*
X-7139241Y-6885715D01*
X-7139247Y-6885717D01*
X-7346750Y-6982477D01*
X-7534297Y-7113799D01*
X-7534303Y-7113804D01*
X-7696196Y-7275697D01*
X-7696201Y-7275703D01*
X-7827522Y-7463249D01*
X-7924283Y-7670753D01*
X-7924284Y-7670756D01*
X-7924284Y-7670757D01*
X-7983543Y-7891913D01*
X-8003498Y-8120000D01*
X-7983543Y-8348087D01*
X-7969185Y-8401671D01*
X-7924285Y-8569240D01*
X-7924283Y-8569246D01*
X-7827523Y-8776749D01*
X-7696201Y-8964296D01*
X-7696196Y-8964302D01*
X-7638900Y-9021598D01*
X-7604874Y-9083910D01*
X-7609939Y-9154725D01*
X-7652486Y-9211561D01*
X-7719006Y-9236372D01*
X-7727995Y-9236693D01*
X-7729995Y-9236693D01*
X-7729998Y-9236693D01*
X-7730000Y-9236693D01*
X-7949371Y-9255885D01*
X-8162074Y-9312879D01*
X-8162080Y-9312881D01*
X-8361654Y-9405944D01*
X-8542035Y-9532248D01*
X-8542041Y-9532253D01*
X-8697747Y-9687959D01*
X-8697752Y-9687965D01*
X-8824056Y-9868346D01*
X-8917119Y-10067920D01*
X-8917124Y-10067934D01*
X-8952083Y-10198402D01*
X-8989034Y-10259024D01*
X-9052895Y-10290046D01*
X-9096329Y-10289758D01*
X-21586540Y-8018810D01*
X-21649983Y-7986944D01*
X-21686128Y-7925837D01*
X-21690000Y-7894842D01*
X-21690000Y-6328502D01*
X-21669998Y-6260381D01*
X-21616342Y-6213888D01*
X-21546068Y-6203784D01*
X-21481488Y-6233278D01*
X-21460786Y-6256233D01*
X-21444306Y-6279770D01*
X-21444303Y-6279774D01*
X-21444301Y-6279776D01*
X-21294776Y-6429301D01*
X-21294772Y-6429304D01*
X-21294768Y-6429307D01*
X-21121562Y-6550587D01*
X-21121559Y-6550588D01*
X-21121558Y-6550589D01*
X-20929910Y-6639956D01*
X-20725655Y-6694686D01*
X-20515000Y-6713116D01*
X-20304345Y-6694686D01*
X-20100090Y-6639956D01*
X-19908442Y-6550589D01*
X-19735224Y-6429301D01*
X-19585699Y-6279776D01*
X-19464411Y-6106558D01*
X-19375044Y-5914910D01*
X-19320314Y-5710655D01*
X-19301884Y-5500000D01*
X-19320314Y-5289345D01*
X-19375044Y-5085090D01*
X-19464411Y-4893442D01*
X-19464412Y-4893441D01*
X-19464413Y-4893438D01*
X-19585693Y-4720232D01*
X-19585697Y-4720227D01*
X-19585699Y-4720224D01*
X-19735224Y-4570699D01*
X-19735228Y-4570696D01*
X-19735233Y-4570692D01*
X-19908439Y-4449412D01*
X-20100088Y-4360045D01*
X-20100092Y-4360043D01*
X-20207528Y-4331256D01*
X-20304345Y-4305314D01*
X-20515000Y-4286884D01*
X-20725655Y-4305314D01*
X-20780384Y-4319978D01*
X-20929909Y-4360043D01*
X-20929913Y-4360045D01*
X-21121562Y-4449412D01*
X-21294768Y-4570692D01*
X-21294779Y-4570701D01*
X-21444299Y-4720221D01*
X-21444304Y-4720227D01*
X-21460787Y-4743768D01*
X-21516245Y-4788096D01*
X-21586864Y-4795405D01*
X-21650224Y-4763374D01*
X-21686209Y-4702173D01*
X-21690000Y-4671497D01*
X-21690000Y-2499996D01*
X-12777845Y-2499996D01*
X-12777845Y-2500003D01*
X-12758487Y-2795356D01*
X-12758485Y-2795370D01*
X-12700740Y-3085665D01*
X-12700738Y-3085675D01*
X-12605599Y-3365945D01*
X-12605593Y-3365959D01*
X-12474683Y-3631420D01*
X-12310237Y-3877532D01*
X-12310234Y-3877536D01*
X-12282908Y-3908695D01*
X-12282906Y-3908695D01*
X-11343792Y-2969581D01*
X-11252913Y-3105590D01*
X-11120590Y-3237913D01*
X-10984583Y-3328790D01*
X-11923697Y-4267904D01*
X-11923697Y-4267906D01*
X-11892537Y-4295233D01*
X-11892533Y-4295236D01*
X-11646421Y-4459682D01*
X-11380960Y-4590592D01*
X-11380946Y-4590598D01*
X-11100676Y-4685737D01*
X-11100666Y-4685739D01*
X-10810371Y-4743484D01*
X-10810357Y-4743486D01*
X-10515003Y-4762845D01*
X-10514997Y-4762845D01*
X-10219644Y-4743486D01*
X-10219630Y-4743484D01*
X-9929335Y-4685739D01*
X-9929325Y-4685737D01*
X-9649055Y-4590598D01*
X-9649041Y-4590592D01*
X-9383580Y-4459682D01*
X-9137469Y-4295236D01*
X-9106305Y-4267906D01*
X-9106305Y-4267904D01*
X-10045419Y-3328790D01*
X-9909410Y-3237913D01*
X-9777087Y-3105590D01*
X-9686210Y-2969581D01*
X-8747096Y-3908695D01*
X-8747094Y-3908695D01*
X-8719764Y-3877531D01*
X-8555318Y-3631420D01*
X-8424408Y-3365959D01*
X-8424402Y-3365945D01*
X-8329263Y-3085675D01*
X-8329261Y-3085665D01*
X-8271516Y-2795370D01*
X-8271514Y-2795356D01*
X-8252155Y-2500003D01*
X-8252155Y-2499996D01*
X-8271514Y-2204643D01*
X-8271516Y-2204629D01*
X-8329261Y-1914334D01*
X-8329263Y-1914324D01*
X-8424402Y-1634054D01*
X-8424408Y-1634040D01*
X-8555318Y-1368580D01*
X-8719764Y-1122467D01*
X-8719767Y-1122463D01*
X-8747094Y-1091303D01*
X-8747096Y-1091303D01*
X-9686210Y-2030417D01*
X-9777087Y-1894410D01*
X-9909410Y-1762087D01*
X-10045419Y-1671208D01*
X-9106305Y-732094D01*
X-9106305Y-732092D01*
X-9137464Y-704766D01*
X-9137468Y-704763D01*
X-9383580Y-540317D01*
X-9649041Y-409407D01*
X-9649055Y-409401D01*
X-9929325Y-314262D01*
X-9929335Y-314260D01*
X-10219630Y-256515D01*
X-10219644Y-256513D01*
X-10514997Y-237155D01*
X-10515003Y-237155D01*
X-10810357Y-256513D01*
X-10810371Y-256515D01*
X-11100666Y-314260D01*
X-11100676Y-314262D01*
X-11380946Y-409401D01*
X-11380960Y-409407D01*
X-11646420Y-540317D01*
X-11892535Y-704765D01*
X-11923697Y-732092D01*
X-11923697Y-732094D01*
X-10984582Y-1671209D01*
X-11120590Y-1762087D01*
X-11252913Y-1894410D01*
X-11343791Y-2030418D01*
X-12282906Y-1091303D01*
X-12282908Y-1091303D01*
X-12310235Y-1122465D01*
X-12474683Y-1368580D01*
X-12605593Y-1634040D01*
X-12605599Y-1634054D01*
X-12700738Y-1914324D01*
X-12700740Y-1914334D01*
X-12758485Y-2204629D01*
X-12758487Y-2204643D01*
X-12777845Y-2499996D01*
X-21690000Y-2499996D01*
X-21690000Y4671498D01*
X-21669998Y4739619D01*
X-21616342Y4786112D01*
X-21546068Y4796216D01*
X-21481488Y4766722D01*
X-21460786Y4743767D01*
X-21444306Y4720230D01*
X-21444303Y4720226D01*
X-21444301Y4720224D01*
X-21294776Y4570699D01*
X-21294772Y4570696D01*
X-21294768Y4570693D01*
X-21121562Y4449413D01*
X-21121559Y4449412D01*
X-21121558Y4449411D01*
X-20929910Y4360044D01*
X-20725655Y4305314D01*
X-20515000Y4286884D01*
X-20380515Y4298650D01*
X-12773500Y4298650D01*
X-12773500Y701351D01*
X-12766991Y640804D01*
X-12766989Y640796D01*
X-12715890Y503798D01*
X-12715888Y503793D01*
X-12628262Y386739D01*
X-12511208Y299113D01*
X-12511206Y299112D01*
X-12511204Y299111D01*
X-12452125Y277076D01*
X-12374205Y248012D01*
X-12374197Y248010D01*
X-12313650Y241501D01*
X-12313645Y241501D01*
X-12313638Y241500D01*
X-12313632Y241500D01*
X-8716368Y241500D01*
X-8716362Y241500D01*
X-8716355Y241501D01*
X-8716351Y241501D01*
X-8655804Y248010D01*
X-8655801Y248011D01*
X-8655799Y248011D01*
X-8518796Y299111D01*
X-8401739Y386739D01*
X-8367926Y431908D01*
X-8314113Y503793D01*
X-8314113Y503794D01*
X-8314111Y503796D01*
X-8263011Y640799D01*
X-8257507Y691989D01*
X-8256501Y701351D01*
X-8256500Y701368D01*
X-8256500Y1000000D01*
X-8002996Y1000000D01*
X-7983049Y771998D01*
X-7923814Y550932D01*
X-7923812Y550927D01*
X-7827088Y343501D01*
X-7812221Y322268D01*
X-7789535Y254994D01*
X-7806822Y186134D01*
X-7812221Y177732D01*
X-7827088Y156500D01*
X-7923812Y-50926D01*
X-7923814Y-50931D01*
X-7983049Y-271997D01*
X-8002996Y-500000D01*
X-7983049Y-728002D01*
X-7923814Y-949068D01*
X-7923812Y-949073D01*
X-7827087Y-1156501D01*
X-7777102Y-1227888D01*
X-7777100Y-1227888D01*
X-7090000Y-540788D01*
X-7090000Y-552661D01*
X-7062741Y-654394D01*
X-7010080Y-745606D01*
X-6935606Y-820080D01*
X-6844394Y-872741D01*
X-6742661Y-900000D01*
X-6730790Y-900000D01*
X-7417890Y-1587098D01*
X-7417890Y-1587100D01*
X-7346502Y-1637086D01*
X-7139074Y-1733811D01*
X-7139069Y-1733813D01*
X-6918001Y-1793048D01*
X-6918005Y-1793048D01*
X-6690000Y-1812995D01*
X-6461998Y-1793048D01*
X-6240932Y-1733813D01*
X-6240927Y-1733811D01*
X-6033503Y-1637088D01*
X-5962112Y-1587099D01*
X-5962112Y-1587097D01*
X-6649209Y-900000D01*
X-6637339Y-900000D01*
X-6535606Y-872741D01*
X-6444394Y-820080D01*
X-6369920Y-745606D01*
X-6317259Y-654394D01*
X-6290000Y-552661D01*
X-6290000Y-540791D01*
X-5602903Y-1227888D01*
X-5602901Y-1227888D01*
X-5552912Y-1156497D01*
X-5456189Y-949073D01*
X-5456187Y-949068D01*
X-5396952Y-728002D01*
X-5377005Y-500000D01*
X-5396952Y-271997D01*
X-5456187Y-50931D01*
X-5456189Y-50926D01*
X-5552911Y156495D01*
X-5567779Y177729D01*
X-5590467Y245003D01*
X-5573182Y313864D01*
X-5567779Y322271D01*
X-5552911Y343506D01*
X-5456189Y550927D01*
X-5456187Y550932D01*
X-5396952Y771998D01*
X-5377005Y1000000D01*
X-5396952Y1228003D01*
X-5456187Y1449069D01*
X-5456189Y1449074D01*
X-5552914Y1656502D01*
X-5602900Y1727890D01*
X-5602903Y1727890D01*
X-6290000Y1040793D01*
X-6290000Y1052661D01*
X-6317259Y1154394D01*
X-6369920Y1245606D01*
X-6444394Y1320080D01*
X-6535606Y1372741D01*
X-6637339Y1400000D01*
X-6649210Y1400000D01*
X-5962112Y2087101D01*
X-5962112Y2087102D01*
X-6033499Y2137087D01*
X-6240927Y2233812D01*
X-6240932Y2233814D01*
X-6462000Y2293049D01*
X-6461996Y2293049D01*
X-6690000Y2312996D01*
X-6918003Y2293049D01*
X-7139069Y2233814D01*
X-7139074Y2233812D01*
X-7346500Y2137087D01*
X-7417891Y2087100D01*
X-6730791Y1400000D01*
X-6742661Y1400000D01*
X-6844394Y1372741D01*
X-6935606Y1320080D01*
X-7010080Y1245606D01*
X-7062741Y1154394D01*
X-7090000Y1052661D01*
X-7090000Y1040791D01*
X-7777100Y1727891D01*
X-7827087Y1656500D01*
X-7923812Y1449074D01*
X-7923814Y1449069D01*
X-7983049Y1228003D01*
X-8002996Y1000000D01*
X-8256500Y1000000D01*
X-8256500Y4298633D01*
X-8256501Y4298650D01*
X-8263010Y4359197D01*
X-8263012Y4359205D01*
X-8303359Y4467376D01*
X-8314111Y4496204D01*
X-8314112Y4496206D01*
X-8314113Y4496208D01*
X-8401739Y4613262D01*
X-8518793Y4700888D01*
X-8518798Y4700890D01*
X-8655796Y4751989D01*
X-8655804Y4751991D01*
X-8716351Y4758500D01*
X-8716362Y4758500D01*
X-12313638Y4758500D01*
X-12313650Y4758500D01*
X-12374197Y4751991D01*
X-12374205Y4751989D01*
X-12511203Y4700890D01*
X-12511208Y4700888D01*
X-12628262Y4613262D01*
X-12715888Y4496208D01*
X-12715890Y4496203D01*
X-12766989Y4359205D01*
X-12766991Y4359197D01*
X-12773500Y4298650D01*
X-20380515Y4298650D01*
X-20304345Y4305314D01*
X-20100090Y4360044D01*
X-19908442Y4449411D01*
X-19735224Y4570699D01*
X-19585699Y4720224D01*
X-19464411Y4893442D01*
X-19375044Y5085090D01*
X-19320314Y5289345D01*
X-19301884Y5500000D01*
X-19320314Y5710655D01*
X-19375044Y5914910D01*
X-19464411Y6106558D01*
X-19464412Y6106559D01*
X-19464413Y6106562D01*
X-19585693Y6279768D01*
X-19585697Y6279773D01*
X-19585699Y6279776D01*
X-19735224Y6429301D01*
X-19735228Y6429304D01*
X-19735233Y6429308D01*
X-19908439Y6550588D01*
X-20100088Y6639955D01*
X-20100092Y6639957D01*
X-20194887Y6665357D01*
X-20304345Y6694686D01*
X-20515000Y6713116D01*
X-20725655Y6694686D01*
X-20780384Y6680022D01*
X-20929909Y6639957D01*
X-20929913Y6639955D01*
X-21121562Y6550588D01*
X-21294768Y6429308D01*
X-21294779Y6429299D01*
X-21444299Y6279779D01*
X-21444304Y6279773D01*
X-21460787Y6256232D01*
X-21516245Y6211904D01*
X-21586864Y6204595D01*
X-21650224Y6236626D01*
X-21686209Y6297827D01*
X-21690000Y6328503D01*
X-21690000Y8393262D01*
X-21669998Y8461383D01*
X-21616342Y8507876D01*
X-21584717Y8517548D01*
X8038815Y13454803D01*
X8109294Y13446272D01*
X8163975Y13400989D01*
X8185046Y13341499D01*
X8201477Y13153694D01*
X8201478Y13153688D01*
X8256208Y12949430D01*
X8256210Y12949426D01*
X8345577Y12757777D01*
X8466857Y12584571D01*
X8466861Y12584566D01*
X8466864Y12584562D01*
X8616389Y12435037D01*
X8616393Y12435034D01*
X8616397Y12435031D01*
X8789603Y12313751D01*
X8789606Y12313750D01*
X8789607Y12313749D01*
X8981255Y12224382D01*
X9185510Y12169652D01*
X9396165Y12151222D01*
X9606820Y12169652D01*
X9811075Y12224382D01*
X10002723Y12313749D01*
X10175941Y12435037D01*
X10325466Y12584562D01*
X10446754Y12757780D01*
X10536121Y12949428D01*
X10590851Y13153683D01*
X10609281Y13364338D01*
X10590851Y13574993D01*
X10548507Y13733023D01*
X10550197Y13803998D01*
X10589991Y13862793D01*
X10649495Y13889916D01*
X11248822Y13989804D01*
X11319303Y13981273D01*
G37*
%TD.AperFunction*%
%TA.AperFunction,Conductor*%
G36*
X-2613277Y-3275964D02*
G01*
X-2577292Y-3337165D01*
X-2573500Y-3367842D01*
X-2573500Y-4266717D01*
X-2593502Y-4334838D01*
X-2647158Y-4381331D01*
X-2710480Y-4392238D01*
X-2758802Y-4388010D01*
X-3325843Y-4955051D01*
X-3344075Y-4887007D01*
X-3409901Y-4772993D01*
X-3502993Y-4679901D01*
X-3617007Y-4614075D01*
X-3685053Y-4595841D01*
X-3118013Y-4028800D01*
X-3178597Y-3986379D01*
X-3311360Y-3924470D01*
X-3364645Y-3877552D01*
X-3384106Y-3809275D01*
X-3363564Y-3741315D01*
X-3311361Y-3696081D01*
X-3217725Y-3652418D01*
X-3178352Y-3634059D01*
X-3178352Y-3634058D01*
X-3178346Y-3634056D01*
X-2997962Y-3507749D01*
X-2842251Y-3352038D01*
X-2802712Y-3295569D01*
X-2747257Y-3251243D01*
X-2676638Y-3243934D01*
X-2613277Y-3275964D01*
G37*
%TD.AperFunction*%
%TD*%
M02*
