$ 1 0.000005 10.20027730826997 50 5 43 5e-11
s 112 80 256 80 0 0 false
v 112 352 112 80 0 0 40 5 0 0 0.5
g 112 352 112 368 0 0
425 288 176 288 272 0 S 0.2 0.005228104329223702 0.02 64.3 0.015 0.003 3 3 1
w 272 112 288 80 0
w 304 112 288 80 0
w 720 176 736 144 0
w 752 176 736 144 0
w 256 80 288 80 0
x -110 456 86 459 4 24 Coil\stimeout\scircuit
w 736 144 736 80 0
x 72 58 439 61 4 24 Click\shere\sto\ssimulate\spower\son/off
426 720 176 720 304 6 S 0.05 1000000 1
426 752 176 752 304 4 S 0.05 1000000 0
426 272 112 272 160 6 S 0.05 1000000 1
426 304 112 304 160 4 S 0.05 1000000 0
w 160 384 160 368 0
f 160 368 208 368 32 1 0.02
w 288 272 288 320 0
w 240 272 288 272 0
w 128 384 160 384 0
w 128 432 160 432 0
w 240 352 208 352 0
w 240 288 240 272 0
w 160 288 160 272 0
g 288 368 288 400 0 0
w 160 336 160 368 0
r 240 352 240 288 0 10000
w 288 320 288 336 0
f 240 352 288 352 32 1 0.02
w 208 432 160 432 0
w 208 384 208 432 0
g 160 432 160 448 0 0
c 160 384 160 432 0 0.000009999999999999999 2.2948050537548332 0
r 160 288 160 336 0 500
r 128 384 128 432 0 500
415 720 304 720 384 0 0.5 1 0.15 0.15 0.02 0.05 1 0
415 752 304 752 384 0 0.5 1 0.15 0.15 0.02 0.05 1 0
g 752 384 752 416 0 0
g 720 384 720 416 0 0
w 656 80 736 80 0
w 288 80 560 80 0
w 560 80 656 80 0
w 240 272 160 272 0
w 272 160 288 176 0
w 304 160 288 176 0
w 720 304 672 304 0
w 720 384 672 384 0
w 752 304 800 304 0
w 752 384 800 384 0
d 800 384 800 304 2 default
d 672 384 672 304 2 default
o 26 32 0 4099 2.5 0.025 0 2 26 3
o 22 2 0 4099 5 0.0015625 1 2 22 3
