(footprint "CC_TEXT" (version 20211014) (generator pcbnew)
  (layer "F.Cu")
  (tedit 0)
  (fp_text reference "REF**" (at 0 -0.5 unlocked) (layer "F.SilkS") hide
    (effects (font (size 1 1) (thickness 0.15)))
    (tstamp 125e45aa-8724-489e-99c5-e4b3484ed693)
  )
  (fp_text value "CC_TEXT" (at 0 1 unlocked) (layer "F.Fab") hide
    (effects (font (size 1 1) (thickness 0.15)))
    (tstamp b983753e-cc51-4007-864a-09f0228f11a6)
  )
  (fp_text user "CC BY-NC 4.0" (at 0 -0.1) (layer "F.SilkS")
    (effects (font (size 1 1) (thickness 0.15)))
    (tstamp b41788b2-ee51-43e3-af15-ebe81400280b)
  )
  (fp_text user "${REFERENCE}" (at 0 2.5 unlocked) (layer "F.Fab") hide
    (effects (font (size 1 1) (thickness 0.15)))
    (tstamp 78877d71-3770-4d86-b19e-064775c5437b)
  )
)
