(footprint "LED_RGB" (version 20211014) (generator pcbnew)
  (layer "F.Cu")
  (tedit 5AA4B1EE)
  (descr "https://cdn-shop.adafruit.com/product-files/3484/3484_Datasheet.pdf")
  (tags "LED RGB NeoPixel Nano")
  (property "Mouser" "https://www.mouser.dk/ProductDetail/Kingbright/APTF1616LSEKJ3ZGKQBC?qs=ZqXcJfGlKsilY2K6EwZ11Q%3D%3D")
  (property "Sheetfile" "ultra.kicad_sch")
  (property "Sheetname" "")
  (attr smd)
  (fp_text reference "LED1" (at 0 -2.54) (layer "F.SilkS") hide
    (effects (font (size 1 1) (thickness 0.15)))
    (tstamp 3604b35a-d9b5-4799-a7df-b5b06b35c380)
  )
  (fp_text value "LED_KRGB" (at 0 -10.16) (layer "F.Fab") hide
    (effects (font (size 1 1) (thickness 0.15)))
    (tstamp 1d7e886a-98e9-47d4-8a44-a9cbe90ca3a8)
  )
  (fp_text user "1" (at 2.54 0.635) (layer "F.SilkS") hide
    (effects (font (size 0.75 0.75) (thickness 0.12)))
    (tstamp 6a139d6b-e8e3-4590-be0c-fa7d4dd2f0f5)
  )
  (fp_text user "${REFERENCE}" (at 0 0) (layer "F.Fab")
    (effects (font (size 0.4 0.4) (thickness 0.08)))
    (tstamp 563bc170-453b-4948-bf1a-7c80f2c45821)
  )
  (fp_line (start -2.4 -1.2) (end 2.5 -1.2) (layer "F.SilkS") (width 0.12) (tstamp 07a9f740-96eb-452a-b8d6-5a07d8a8eb6c))
  (fp_line (start -2.4 2.2) (end -1.9 1.7125) (layer "F.SilkS") (width 0.12) (tstamp 25235bea-5933-489e-8406-523723697c29))
  (fp_line (start -2.4 1.225) (end -1.4 2.2) (layer "F.SilkS") (width 0.12) (tstamp 344d8dfd-4c46-45c2-9c23-a668b18aefe5))
  (fp_line (start -1.4 2.2) (end -1.4 -2.3) (layer "F.SilkS") (width 0.12) (tstamp aa1ae487-0263-45ea-b1bc-9025e832bf1a))
  (fp_line (start -2.4 1.225) (end 2.5 1.2) (layer "F.SilkS") (width 0.12) (tstamp b2f0b292-dc68-4ade-89fb-179857807e13))
  (fp_line (start 1.4 2.2) (end 1.4 -2.3) (layer "F.SilkS") (width 0.12) (tstamp c10ccc63-b03a-44e1-abac-2a223d1f14b4))
  (fp_line (start -1.75 1.45) (end 1.75 1.45) (layer "F.CrtYd") (width 0.05) (tstamp 2893219e-0c8a-493a-a6b9-47d2f470b430))
  (fp_line (start -1.75 -1.45) (end -1.75 1.45) (layer "F.CrtYd") (width 0.05) (tstamp 56318a9c-8fe0-4320-ba58-c340114c4dbf))
  (fp_line (start 1.75 1.45) (end 1.75 -1.45) (layer "F.CrtYd") (width 0.05) (tstamp 8e102ac8-ff47-448e-a71d-837b381454f4))
  (fp_line (start 1.75 -1.45) (end -1.75 -1.45) (layer "F.CrtYd") (width 0.05) (tstamp a68deced-df2b-4564-b103-31b9a9a9861f))
  (fp_line (start 1.35 1.2) (end 1.35 -1.2) (layer "F.Fab") (width 0.1) (tstamp 35b1632f-3373-4fae-86d9-cbb9341ccc81))
  (fp_line (start -1.35 1.2) (end 1.35 1.2) (layer "F.Fab") (width 0.1) (tstamp 3eabf031-0dc1-4269-bbb0-6c3133e6401b))
  (fp_line (start -1.35 0.6) (end -0.75 1.2) (layer "F.Fab") (width 0.1) (tstamp 4bc51fd1-75dc-4137-bead-f5aaf7bfebde))
  (fp_line (start -1.35 -1.2) (end -1.35 1.2) (layer "F.Fab") (width 0.1) (tstamp 864c1105-b3f9-47ab-a0ac-b7a5091b541c))
  (fp_line (start 1.35 -1.2) (end -1.35 -1.2) (layer "F.Fab") (width 0.1) (tstamp 90b7c0f5-c3e3-451d-aa5d-a89c305c0d19))
  (fp_circle (center 0 0) (end 0 -1) (layer "F.Fab") (width 0.1) (fill none) (tstamp c50e93df-6684-4a4e-b3ec-f5154e86f11f))
  (pad "B" smd rect (at 1.3 -1.125) (size 1.6 1.55) (layers "F.Cu" "F.Paste" "F.Mask") (tstamp 7acff176-1bc5-4974-af64-b412dfb75daa))
  (pad "G" smd rect (at -1.3 -1.125) (size 1.6 1.55) (layers "F.Cu" "F.Paste" "F.Mask") (tstamp f97d715a-7b86-4044-a1d6-fe6d05dabd1d))
  (pad "K" smd rect (at 1.3 1.125) (size 1.6 1.55) (layers "F.Cu" "F.Paste" "F.Mask") (tstamp be1b335f-adef-4eb1-9f76-6eda6e9eac65))
  (pad "R" smd roundrect (at -1.3 1.125) (size 1.6 1.55) (layers "F.Cu" "F.Paste" "F.Mask") (roundrect_rratio 0)
    (chamfer_ratio 0.2) (chamfer bottom_left) (tstamp b58b1e1b-93bd-400a-9c2c-1563e3568092))
  (model "${KICAD6_3DMODEL_DIR}/LED_SMD.3dshapes/LED_SK6805_PLCC4_2.4x2.7mm_P1.3mm.wrl"
    (offset (xyz 0 0 0))
    (scale (xyz 1 1 1))
    (rotate (xyz 0 0 0))
  )
)
