(footprint "OSHW_PWTS"
	(version 20240108)
	(generator "pcbnew")
	(generator_version "8.0")
	(layer "F.Cu")
	(property "Reference" "REF**"
		(at 0 -0.5 0)
		(unlocked yes)
		(layer "F.SilkS")
		(uuid "d2405123-c8cd-4488-be50-d7f08f4fc459")
		(effects
			(font
				(size 1 1)
				(thickness 0.1)
			)
		)
	)
	(property "Value" "OSHW_PWTS"
		(at 0 1 0)
		(unlocked yes)
		(layer "F.Fab")
		(uuid "df8c020d-f938-4042-bf19-a2bad057011e")
		(effects
			(font
				(size 1 1)
				(thickness 0.15)
			)
		)
	)
	(property "Footprint" ""
		(at 0 0 0)
		(unlocked yes)
		(layer "F.Fab")
		(hide yes)
		(uuid "008122d4-4009-4abf-887f-9973a58c99e0")
		(effects
			(font
				(size 1 1)
				(thickness 0.15)
			)
		)
	)
	(property "Datasheet" ""
		(at 0 0 0)
		(unlocked yes)
		(layer "F.Fab")
		(hide yes)
		(uuid "8b9abf34-3c8f-4ede-8a81-ef440c65303d")
		(effects
			(font
				(size 1 1)
				(thickness 0.15)
			)
		)
	)
	(property "Description" ""
		(at 0 0 0)
		(unlocked yes)
		(layer "F.Fab")
		(hide yes)
		(uuid "09090d4d-0d69-495a-8b12-109c8e393e4e")
		(effects
			(font
				(size 1 1)
				(thickness 0.15)
			)
		)
	)
	(fp_poly
		(pts
			(xy 0.523626 -4.974494) (xy 0.580474 -4.672942) (xy 1 -4.5) (xy 1.251646 -4.671117) (xy 1.32212 -4.718762)
			(xy 1.385825 -4.761302) (xy 1.439788 -4.796797) (xy 1.481035 -4.823302) (xy 1.506596 -4.838876) (xy 1.513557 -4.842234)
			(xy 1.526097 -4.833598) (xy 1.552893 -4.80972) (xy 1.590942 -4.773653) (xy 1.637241 -4.728445) (xy 1.688785 -4.677148)
			(xy 1.742571 -4.622811) (xy 1.795597 -4.568484) (xy 1.844857 -4.517217) (xy 1.887349 -4.472061) (xy 1.920069 -4.436066)
			(xy 1.940013 -4.412282) (xy 1.944781 -4.404322) (xy 1.937919 -4.389647) (xy 1.918682 -4.357498) (xy 1.889092 -4.31102)
			(xy 1.851172 -4.253356) (xy 1.806944 -4.187652) (xy 1.781316 -4.150176) (xy 1.734603 -4.081744) (xy 1.693094 -4.019992)
			(xy 1.658802 -3.967993) (xy 1.633742 -3.92882) (xy 1.619926 -3.905547) (xy 1.61785 -3.900657) (xy 1.622557 -3.886757)
			(xy 1.635385 -3.854362) (xy 1.6544 -3.808027) (xy 1.677665 -3.752306) (xy 1.703246 -3.691754) (xy 1.729207 -3.630926)
			(xy 1.753612 -3.574376) (xy 1.774525 -3.52666) (xy 1.790011 -3.492331) (xy 1.798134 -3.475944) (xy 1.798614 -3.4753)
			(xy 1.811369 -3.472171) (xy 1.845339 -3.465191) (xy 1.897002 -3.455045) (xy 1.962838 -3.44242) (xy 2.039326 -3.428003)
			(xy 2.083952 -3.419689) (xy 2.165683 -3.404128) (xy 2.239505 -3.38932) (xy 2.301683 -3.376076) (xy 2.348484 -3.365207)
			(xy 2.376171 -3.357523) (xy 2.381736 -3.355085) (xy 2.387188 -3.338582) (xy 2.391586 -3.301312) (xy 2.394934 -3.247632)
			(xy 2.397236 -3.1819) (xy 2.398494 -3.108475) (xy 2.39871 -3.031716) (xy 2.397889 -2.95598) (xy 2.396033 -2.885626)
			(xy 2.393144 -2.825012) (xy 2.389227 -2.778496) (xy 2.384284 -2.750437) (xy 2.381319 -2.744596) (xy 2.363596 -2.737595)
			(xy 2.326043 -2.727585) (xy 2.273626 -2.715743) (xy 2.211314 -2.703245) (xy 2.189562 -2.699202) (xy 2.084686 -2.679992)
			(xy 2.001842 -2.664521) (xy 1.938292 -2.652175) (xy 1.891299 -2.642339) (xy 1.858125 -2.634398) (xy 1.836033 -2.627736)
			(xy 1.822286 -2.621739) (xy 1.814146 -2.615793) (xy 1.813007 -2.614618) (xy 1.801639 -2.595686) (xy 1.784297 -2.558843)
			(xy 1.762712 -2.508599) (xy 1.738616 -2.449466) (xy 1.713741 -2.385956) (xy 1.689819 -2.32258) (xy 1.668581 -2.26385)
			(xy 1.651759 -2.214277) (xy 1.641084 -2.178373) (xy 1.638289 -2.16065) (xy 1.638522 -2.160029) (xy 1.647993 -2.145542)
			(xy 1.66948 -2.113668) (xy 1.700725 -2.067723) (xy 1.739469 -2.011027) (xy 1.783455 -1.946895) (xy 1.795981 -1.92867)
			(xy 1.840646 -1.862598) (xy 1.87995 -1.802312) (xy 1.91175 -1.751277) (xy 1.933907 -1.712952) (xy 1.944279 -1.690801)
			(xy 1.944781 -1.68808) (xy 1.936067 -1.673776) (xy 1.911987 -1.64544) (xy 1.875638 -1.606116) (xy 1.830115 -1.558851)
			(xy 1.778514 -1.506689) (xy 1.723929 -1.452677) (xy 1.669456 -1.399859) (xy 1.618191 -1.351281) (xy 1.573229 -1.309989)
			(xy 1.537666 -1.279027) (xy 1.514597 -1.261442) (xy 1.508216 -1.258571) (xy 1.493361 -1.265334) (xy 1.462948 -1.283573)
			(xy 1.42193 -1.310215) (xy 1.390371 -1.33166) (xy 1.333187 -1.371009) (xy 1.265468 -1.417341) (xy 1.197542 -1.463599)
			(xy 1.161023 -1.488357) (xy 1.037414 -1.571965) (xy 0.933653 -1.515862) (xy 0.886382 -1.491284) (xy 0.846185 -1.472181)
			(xy 0.818988 -1.461285) (xy 0.812064 -1.459769) (xy 0.803739 -1.470963) (xy 0.787316 -1.502595) (xy 0.764019 -1.551747)
			(xy 0.735076 -1.615502) (xy 0.701712 -1.690941) (xy 0.665153 -1.775148) (xy 0.626626 -1.865204) (xy 0.587356 -1.958191)
			(xy 0.54857 -2.051192) (xy 0.511492 -2.141289) (xy 0.477351 -2.225564) (xy 0.44737 -2.301099) (xy 0.422778 -2.364978)
			(xy 0.404798 -2.414281) (xy 0.394659 -2.446091) (xy 0.393028 -2.457016) (xy 0.405953 -2.470951) (xy 0.434251 -2.493572)
			(xy 0.472008 -2.520179) (xy 0.475177 -2.522284) (xy 0.572762 -2.600398) (xy 0.651448 -2.69153) (xy 0.710553 -2.792767)
			(xy 0.749394 -2.901194) (xy 0.76729 -3.013898) (xy 0.763559 -3.127964) (xy 0.737519 -3.240478) (xy 0.688487 -3.348527)
			(xy 0.674062 -3.372167) (xy 0.599031 -3.467625) (xy 0.510392 -3.54428) (xy 0.411211 -3.601732) (xy 0.304557 -3.639583)
			(xy 0.193498 -3.657434) (xy 0.081101 -3.654887) (xy -0.029565 -3.631542) (xy -0.135432 -3.587002)
			(xy -0.233433 -3.520867) (xy -0.263748 -3.494025) (xy -0.3409 -3.41) (xy -0.39712 -3.321546) (xy -0.435685 -3.222397)
			(xy -0.457164 -3.124209) (xy -0.462466 -3.013815) (xy -0.444786 -2.902872) (xy -0.405919 -2.795131)
			(xy -0.347661 -2.694343) (xy -0.271807 -2.604256) (xy -0.180155 -2.52862) (xy -0.16811 -2.520648)
			(xy -0.129949 -2.494538) (xy -0.100939 -2.471917) (xy -0.08707 -2.457473) (xy -0.086869 -2.457016)
			(xy -0.089846 -2.441391) (xy -0.101649 -2.40593) (xy -0.121052 -2.35355) (xy -0.146826 -2.287167)
			(xy -0.177747 -2.209698) (xy -0.212587 -2.124062) (xy -0.250121 -2.033175) (xy -0.289121 -1.939953)
			(xy -0.328361 -1.847315) (xy -0.366614 -1.758177) (xy -0.402655 -1.675457) (xy -0.435255 -1.602071)
			(xy -0.46319 -1.540937) (xy -0.485233 -1.494971) (xy -0.500156 -1.467091) (xy -0.506166 -1.459769)
			(xy -0.524529 -1.465471) (xy -0.55889 -1.480763) (xy -0.603322 -1.502913) (xy -0.627755 -1.515862)
			(xy -0.731516 -1.571965) (xy -0.855125 -1.488357) (xy -0.918224 -1.445525) (xy -0.987308 -1.39839)
			(xy -1.052045 -1.354009) (xy -1.084472 -1.33166) (xy -1.130079 -1.301035) (xy -1.168698 -1.276765)
			(xy -1.19529 -1.261925) (xy -1.203928 -1.258788) (xy -1.216499 -1.267251) (xy -1.244322 -1.290876)
			(xy -1.284699 -1.32721) (xy -1.334933 -1.373801) (xy -1.392326 -1.428195) (xy -1.428624 -1.46312)
			(xy -1.492128 -1.525516) (xy -1.547011 -1.581324) (xy -1.591052 -1.628158) (xy -1.622033 -1.66363)
			(xy -1.637736 -1.685351) (xy -1.639243 -1.68976) (xy -1.632252 -1.706527) (xy -1.612932 -1.74043)
			(xy -1.583429 -1.788036) (xy -1.545883 -1.845913) (xy -1.502438 -1.910628) (xy -1.490083 -1.92867)
			(xy -1.445065 -1.994245) (xy -1.404678 -2.053284) (xy -1.371178 -2.10247) (xy -1.346824 -2.138484)
			(xy -1.333874 -2.15801) (xy -1.332623 -2.160029) (xy -1.334494 -2.17559) (xy -1.344425 -2.209803)
			(xy -1.360685 -2.258157) (xy -1.381543 -2.316141) (xy -1.405265 -2.379242) (xy -1.430122 -2.442949)
			(xy -1.45438 -2.502751) (xy -1.476309 -2.554136) (xy -1.494176 -2.592593) (xy -1.506251 -2.61361)
			(xy -1.507109 -2.614618) (xy -1.514492 -2.620624) (xy -1.526963 -2.626564) (xy -1.547258 -2.633052)
			(xy -1.578116 -2.640703) (xy -1.622272 -2.650132) (xy -1.682464 -2.661953) (xy -1.761431 -2.676783)
			(xy -1.861908 -2.695235) (xy -1.883663 -2.699202) (xy -1.94814 -2.711659) (xy -2.004349 -2.723846)
			(xy -2.047325 -2.734586) (xy -2.072098 -2.742703) (xy -2.07542 -2.744596) (xy -2.080894 -2.761374)
			(xy -2.085344 -2.798867) (xy -2.088766 -2.852718) (xy -2.091157 -2.918568) (xy -2.092515 -2.992059)
			(xy -2.092837 -3.068832) (xy -2.092119 -3.144529) (xy -2.090359 -3.214792) (xy -2.087554 -3.275262)
			(xy -2.0837 -3.321582) (xy -2.078795 -3.349393) (xy -2.075838 -3.355085) (xy -2.059375 -3.360826)
			(xy -2.021889 -3.370167) (xy -1.967113 -3.382297) (xy -1.898783 -3.396405) (xy -1.820632 -3.411682)
			(xy -1.778054 -3.419689) (xy -1.697267 -3.434791) (xy -1.625225 -3.448472) (xy -1.565449 -3.460045)
			(xy -1.521459 -3.468825) (xy -1.496777 -3.474125) (xy -1.492715 -3.4753) (xy -1.485849 -3.488547)
			(xy -1.471336 -3.520455) (xy -1.451109 -3.566465) (xy -1.427104 -3.62202) (xy -1.401256 -3.682559)
			(xy -1.375498 -3.743526) (xy -1.351765 -3.800361) (xy -1.331992 -3.848506) (xy -1.318114 -3.883402)
			(xy -1.312064 -3.900491) (xy -1.311952 -3.901238) (xy -1.31881 -3.914719) (xy -1.338036 -3.945742)
			(xy -1.36761 -3.991223) (xy -1.405511 -4.04808) (xy -1.449718 -4.113229) (xy -1.475417 -4.15065)
			(xy -1.522245 -4.219265) (xy -1.563837 -4.28156) (xy -1.598163 -4.334383) (xy -1.623195 -4.374585)
			(xy -1.636903 -4.399012) (xy -1.638882 -4.404488) (xy -1.630372 -4.417234) (xy -1.606845 -4.444449)
			(xy -1.571306 -4.483084) (xy -1.526761 -4.530089) (xy -1.476215 -4.582417) (xy -1.422674 -4.637017)
			(xy -1.369143 -4.690842) (xy -1.318627 -4.740842) (xy -1.274132 -4.783969) (xy -1.238663 -4.817173)
			(xy -1.215225 -4.837406) (xy -1.207384 -4.842234) (xy -1.194618 -4.835445) (xy -1.164082 -4.81637)
			(xy -1.118748 -4.786951) (xy -1.061582 -4.749131) (xy -0.995554 -4.704851) (xy -0.945748 -4.671117)
			(xy -0.694102 -4.5) (xy -0.484339 -4.586471) (xy -0.274575 -4.672942) (xy -0.217727 -4.974494) (xy -0.160878 -5.276046)
			(xy 0.466777 -5.276046) (xy 0.523626 -4.974494)
		)
		(stroke
			(width 0.01)
			(type solid)
		)
		(fill solid)
		(layer "F.SilkS")
		(uuid "d0db2a74-c453-44a2-8336-3944d22f2c10")
	)
	(fp_text user "${REFERENCE}"
		(at 0 2.5 0)
		(unlocked yes)
		(layer "F.Fab")
		(uuid "3f6f31df-23fa-4445-becc-46994759b7aa")
		(effects
			(font
				(size 1 1)
				(thickness 0.15)
			)
		)
	)
)
