(footprint "R_THT_SMD" (version 20211014) (generator pcbnew)
  (layer "F.Cu")
  (tedit 0)
  (attr smd)
  (fp_text reference "REF**" (at 0.6 0.1 unlocked) (layer "F.SilkS")
    (effects (font (size 1 1) (thickness 0.15)))
    (tstamp 7bbd0a9c-1195-4fe3-b303-6d32e17454f0)
  )
  (fp_text value "R_THT_SMD" (at 0 -1.8 unlocked) (layer "F.Fab")
    (effects (font (size 1 1) (thickness 0.15)))
    (tstamp b662cce6-566d-4681-ad96-ae3ed6d2583e)
  )
  (fp_line (start -1.942936 -0.92) (end -1.942936 0.92) (layer "F.SilkS") (width 0.12) (tstamp 09ab611e-74e4-43f8-be8c-6c94989e6ad4))
  (fp_line (start -0.727064 0.88) (end 0.727064 0.88) (layer "F.SilkS") (width 0.12) (tstamp 1c53fc78-5db9-4fe3-a1e0-aa62f68c20a7))
  (fp_line (start 1.897064 0.92) (end 1.897064 -0.92) (layer "F.SilkS") (width 0.12) (tstamp 32dfa68c-18af-40cd-b8eb-ac5b837c6c38))
  (fp_line (start 2.847064 0) (end 1.897064 0) (layer "F.SilkS") (width 0.12) (tstamp 646dbbc4-7dc3-4f61-bd0e-7d4c0344561e))
  (fp_line (start -1.942936 0.92) (end 1.897064 0.92) (layer "F.SilkS") (width 0.12) (tstamp 7a38fb1a-7042-4699-948b-91a569fb4c0c))
  (fp_line (start 1.897064 -0.92) (end -1.942936 -0.92) (layer "F.SilkS") (width 0.12) (tstamp 93830139-388b-4e43-9d3e-c8e883bb5676))
  (fp_line (start -0.727064 -0.94) (end 0.727064 -0.94) (layer "F.SilkS") (width 0.12) (tstamp 94246932-33c4-46eb-87c6-fcf832256138))
  (fp_line (start -2.892936 0) (end -1.942936 0) (layer "F.SilkS") (width 0.12) (tstamp f2da3e8e-edc1-4744-b4fc-e779ecef5993))
  (fp_line (start 4.737064 1.05) (end 4.737064 -1.05) (layer "F.CrtYd") (width 0.05) (tstamp 5256fb23-79f6-4205-9c55-d576caa17607))
  (fp_line (start -4.782936 -1.05) (end -4.782936 1.05) (layer "F.CrtYd") (width 0.05) (tstamp 9efd2795-8cb3-4d6a-adf0-313c798fbc62))
  (fp_line (start -4.782936 1.05) (end 4.737064 1.05) (layer "F.CrtYd") (width 0.05) (tstamp c64a2a21-45e4-4c63-8784-8f43b85f79c8))
  (fp_line (start 4.737064 -1.05) (end -4.782936 -1.05) (layer "F.CrtYd") (width 0.05) (tstamp cb4db0b9-f0b5-4314-adb1-d1e909150643))
  (fp_line (start 1.6 -0.83) (end 1.6 0.77) (layer "F.Fab") (width 0.1) (tstamp 3ad6f02e-1e73-40c9-8c36-95161a379e9e))
  (fp_line (start 1.777064 0.8) (end 1.777064 -0.8) (layer "F.Fab") (width 0.1) (tstamp 4eaf460b-3ef6-4833-bfff-bf0ac614d20e))
  (fp_line (start -1.6 0.77) (end -1.6 -0.83) (layer "F.Fab") (width 0.1) (tstamp 56b02006-f512-4736-90b1-cd479b8759e4))
  (fp_line (start 3.787064 0) (end 1.777064 0) (layer "F.Fab") (width 0.1) (tstamp 56db6d2e-b8d0-48d5-81b8-660d54087d4a))
  (fp_line (start -1.6 -0.83) (end 1.6 -0.83) (layer "F.Fab") (width 0.1) (tstamp 639c9b63-2e93-41e4-b4c3-32549d341d90))
  (fp_line (start -3.832936 0) (end -1.822936 0) (layer "F.Fab") (width 0.1) (tstamp 69582d16-de33-4b6d-b115-7822901caa16))
  (fp_line (start -1.822936 -0.8) (end -1.822936 0.8) (layer "F.Fab") (width 0.1) (tstamp 770c4a4d-e29d-4800-acfb-100ebf974eb2))
  (fp_line (start 1.6 0.77) (end -1.6 0.77) (layer "F.Fab") (width 0.1) (tstamp 9e0bdbdb-1166-4d53-95bf-53351299fb56))
  (fp_line (start -1.822936 0.8) (end 1.777064 0.8) (layer "F.Fab") (width 0.1) (tstamp 9ea35eeb-7bab-440a-b585-ca29d4a9d759))
  (fp_line (start 1.777064 -0.8) (end -1.822936 -0.8) (layer "F.Fab") (width 0.1) (tstamp cb2ffea8-8dc9-48ec-b553-d4bf38575e70))
  (pad "1" thru_hole circle (at -3.832936 0) (size 1.4 1.4) (drill 0.7) (layers *.Cu *.Mask) (tstamp 0a72b795-8489-4a14-88b5-f95ecd0bcc06))
  (pad "1" smd roundrect (at -1.4625 -0.03) (size 1.125 1.75) (layers "F.Cu" "F.Paste" "F.Mask") (roundrect_rratio 0.2222222222) (tstamp 722ec74f-144a-4c5b-b992-abf42bc385ff))
  (pad "2" smd roundrect (at 1.4625 -0.03) (size 1.125 1.75) (layers "F.Cu" "F.Paste" "F.Mask") (roundrect_rratio 0.2222222222) (tstamp 5d546631-51f5-49ad-8894-d4bb491b419b))
  (pad "2" thru_hole oval (at 3.787064 0) (size 1.4 1.4) (drill 0.7) (layers *.Cu *.Mask) (tstamp 7e12d11d-1384-4135-a561-9941509ced08))
)
