PCBNEW-LibModule-V1  2024-05-09 08:51:53
# encoding utf-8
Units mm
$INDEX
DIPS762W80P254L1400H540Q10N
$EndINDEX
$MODULE DIPS762W80P254L1400H540Q10N
Po 0 0 0 15 663c8ea9 00000000 ~~
Li DIPS762W80P254L1400H540Q10N
Cd TQ2-L2-9V
Kw Relay or Contactor
Sc 0
At STD
AR 
Op 0 0 0
T0 0 0 1.27 1.27 0 0.254 N V 21 N "K**"
T1 0 0 1.27 1.27 0 0.254 N I 21 N "DIPS762W80P254L1400H540Q10N"
DS -1.09 -2.32 8.71 -2.32 0.05 24
DS 8.71 -2.32 8.71 12.48 0.05 24
DS 8.71 12.48 -1.09 12.48 0.05 24
DS -1.09 12.48 -1.09 -2.32 0.05 24
DS -0.84 -2.07 8.46 -2.07 0.1 24
DS 8.46 -2.07 8.46 12.23 0.1 24
DS 8.46 12.23 -0.84 12.23 0.1 24
DS -0.84 12.23 -0.84 -2.07 0.1 24
DS -0.84 -0.8 0.43 -2.07 0.1 24
DS -0.84 12.23 8.46 12.23 0.2 21
DS 8.46 -2.07 -0.84 -2.07 0.2 21
DS -0.84 -2.07 -0.84 0 0.2 21
$PAD
Po 0 0
Sh "1" R 1.5 1.5 0 0 900
Dr 1 0 0
At STD N 00E0FFFF
Ne 0 ""
$EndPAD
$PAD
Po 0 2.54
Sh "2" C 1.5 1.5 0 0 900
Dr 1 0 0
At STD N 00E0FFFF
Ne 0 ""
$EndPAD
$PAD
Po 0 5.08
Sh "3" C 1.5 1.5 0 0 900
Dr 1 0 0
At STD N 00E0FFFF
Ne 0 ""
$EndPAD
$PAD
Po 0 7.62
Sh "4" C 1.5 1.5 0 0 900
Dr 1 0 0
At STD N 00E0FFFF
Ne 0 ""
$EndPAD
$PAD
Po 0 10.16
Sh "5" C 1.5 1.5 0 0 900
Dr 1 0 0
At STD N 00E0FFFF
Ne 0 ""
$EndPAD
$PAD
Po 7.62 10.16
Sh "6" C 1.5 1.5 0 0 900
Dr 1 0 0
At STD N 00E0FFFF
Ne 0 ""
$EndPAD
$PAD
Po 7.62 7.62
Sh "7" C 1.5 1.5 0 0 900
Dr 1 0 0
At STD N 00E0FFFF
Ne 0 ""
$EndPAD
$PAD
Po 7.62 5.08
Sh "8" C 1.5 1.5 0 0 900
Dr 1 0 0
At STD N 00E0FFFF
Ne 0 ""
$EndPAD
$PAD
Po 7.62 2.54
Sh "9" C 1.5 1.5 0 0 900
Dr 1 0 0
At STD N 00E0FFFF
Ne 0 ""
$EndPAD
$PAD
Po 7.62 0
Sh "10" C 1.5 1.5 0 0 900
Dr 1 0 0
At STD N 00E0FFFF
Ne 0 ""
$EndPAD
$EndMODULE DIPS762W80P254L1400H540Q10N
$EndLIBRARY
