(footprint "Zener" (version 20211014) (generator pcbnew)
  (layer "F.Cu")
  (tedit 0)
  (attr smd)
  (fp_text reference "REF**" (at 0 -0.5 unlocked) (layer "F.SilkS")
    (effects (font (size 1 1) (thickness 0.15)))
    (tstamp b3ee094c-a48f-4554-89f2-1c5fdd90e6aa)
  )
  (fp_text value "Zener" (at 0 1 unlocked) (layer "F.Fab")
    (effects (font (size 1 1) (thickness 0.15)))
    (tstamp 3355d6c0-40c9-4b72-9b96-de7446c79390)
  )
  (fp_text user "${REFERENCE}" (at 0 2.5 unlocked) (layer "F.Fab")
    (effects (font (size 1 1) (thickness 0.15)))
    (tstamp c4f0783f-913b-46e5-b1b2-ab411bed325a)
  )
  (fp_line (start -1.9 -3.55) (end -1.9 -1.85) (layer "F.SilkS") (width 0.12) (tstamp 069742d9-cbf8-4a81-a539-84b89a08d528))
  (fp_line (start -1.9 -3.55) (end 1.25 -3.55) (layer "F.SilkS") (width 0.12) (tstamp 46394787-3f80-4365-bc86-511860ec9f99))
  (fp_line (start -1.9 -1.85) (end 1.25 -1.85) (layer "F.SilkS") (width 0.12) (tstamp 759ec112-32e0-400c-b5cf-5da303a01f07))
  (fp_line (start -2 -1.75) (end 2 -1.75) (layer "F.CrtYd") (width 0.05) (tstamp 656b60b8-46ef-4f4a-a2bd-324c1c4c5ab5))
  (fp_line (start -2 -3.65) (end 2 -3.65) (layer "F.CrtYd") (width 0.05) (tstamp c171d9e4-2ac4-43ea-9dee-268d4f6ed6c4))
  (fp_line (start 2 -3.65) (end 2 -1.75) (layer "F.CrtYd") (width 0.05) (tstamp f4ede3c3-62cc-4162-a78a-e0400aa89e78))
  (fp_line (start -2 -3.65) (end -2 -1.75) (layer "F.CrtYd") (width 0.05) (tstamp f81345b9-5d65-438d-8372-68b6c0bfd0fb))
  (fp_line (start -0.3 -2.7) (end 0.2 -3.05) (layer "F.Fab") (width 0.1) (tstamp 14a529c7-637a-4f3f-a65f-597400d48d11))
  (fp_line (start 0.2 -2.7) (end 0.45 -2.7) (layer "F.Fab") (width 0.1) (tstamp 1c186978-08b1-481e-b276-4f7eef89c2ac))
  (fp_line (start -0.3 -2.7) (end -0.5 -2.7) (layer "F.Fab") (width 0.1) (tstamp 263bf050-2313-4e20-80e9-c94a301fe04e))
  (fp_line (start 0.2 -3.05) (end 0.2 -2.35) (layer "F.Fab") (width 0.1) (tstamp 2b0fa49f-5b2d-4943-b661-fc508d26ed6b))
  (fp_line (start -0.9 -2) (end -0.9 -3.4) (layer "F.Fab") (width 0.1) (tstamp 3c655e83-4a1b-4647-a0a4-926e86455c56))
  (fp_line (start -0.9 -3.4) (end 0.9 -3.4) (layer "F.Fab") (width 0.1) (tstamp 8c86db77-41bc-4bf5-9ee9-9d4a75988871))
  (fp_line (start 0.9 -3.4) (end 0.9 -2) (layer "F.Fab") (width 0.1) (tstamp a47e0321-a94b-47f7-90d0-d67fb9ff106e))
  (fp_line (start 0.2 -2.35) (end -0.3 -2.7) (layer "F.Fab") (width 0.1) (tstamp b634f471-9dac-4597-a680-653b26490892))
  (fp_line (start 0.9 -2) (end -0.9 -2) (layer "F.Fab") (width 0.1) (tstamp bbfa0225-0b6e-408f-a680-0c0bb2d6f1af))
  (fp_line (start -0.3 -3.05) (end -0.3 -2.35) (layer "F.Fab") (width 0.1) (tstamp f43dbd93-bf68-44e4-adde-592c01c6ee5f))
  (pad "1" thru_hole circle (at -3.5 -2.7) (size 1.8 1.8) (drill 0.8) (layers *.Cu *.Mask) (tstamp 2c2fda6c-e79f-40c9-bf85-938f456c7d8c))
  (pad "1" smd rect (at -1.25 -2.7) (size 1 1) (layers "F.Cu" "F.Paste" "F.Mask") (tstamp 44c9b9a4-1739-4068-82f6-873869c606ec))
  (pad "2" smd rect (at 1.25 -2.7) (size 1 1) (layers "F.Cu" "F.Paste" "F.Mask") (tstamp dcbcbe49-45e1-4656-8f20-018322267f77))
  (pad "2" thru_hole circle (at 3.5 -2.7) (size 1.8 1.8) (drill 0.8) (layers *.Cu *.Mask) (tstamp f0c5a71e-77a1-46a7-aa3b-29e447343ca4))
)
